<?xml version="1.0" encoding="utf-8"?>
<!-- Generator: Adobe Illustrator 17.0.0, SVG Export Plug-In . SVG Version: 6.00 Build 0)  -->
<!DOCTYPE svg PUBLIC "-//W3C//DTD SVG 1.1//EN" "http://www.w3.org/Graphics/SVG/1.1/DTD/svg11.dtd">
<svg version="1.1" id="Layer_1" xmlns="http://www.w3.org/2000/svg" xmlns:xlink="http://www.w3.org/1999/xlink" x="0px" y="0px"
	 width="841.89px" height="595.28px" viewBox="0 0 841.89 595.28" enable-background="new 0 0 841.89 595.28" xml:space="preserve">
<g>
	<g>
		<g>
			<path fill="#F1F2F2" d="M423.436,369.635c-59.811,0-108.47-47.732-108.47-106.401s48.659-106.4,108.47-106.4
				s108.472,47.73,108.472,106.4S483.247,369.635,423.436,369.635z M423.436,159.743c-58.206,0-105.562,46.425-105.562,103.492
				c0,57.068,47.356,103.493,105.562,103.493c58.208,0,105.563-46.425,105.563-103.493
				C528.999,206.168,481.643,159.743,423.436,159.743z"/>
		</g>
		<g>
			<path fill="#FFFFFF" d="M416.626,368.238c-56.879,0-103.152-45.392-103.152-101.184s46.273-101.182,103.152-101.182
				c56.877,0,103.151,45.39,103.151,101.182S473.504,368.238,416.626,368.238z M416.626,168.78
				c-55.274,0-100.244,44.085-100.244,98.274c0,54.19,44.97,98.276,100.244,98.276s100.242-44.085,100.242-98.276
				C516.869,212.865,471.9,168.78,416.626,168.78z"/>
		</g>
		<path fill="#FFFFFF" d="M423.436,167.326c-55.079,0-99.729,44.65-99.729,99.729s44.65,99.729,99.729,99.729
			s99.729-44.65,99.729-99.729S478.515,167.326,423.436,167.326z M423.436,312.979c-25.363,0-45.924-20.561-45.924-45.925
			c0-25.363,20.561-45.924,45.924-45.924c25.363,0,45.925,20.561,45.925,45.924C469.361,292.418,448.799,312.979,423.436,312.979z"
			/>
		<g>
			<path fill="#F1F2F2" d="M423.436,368.238c-55.792,0-101.182-45.392-101.182-101.184s45.39-101.182,101.182-101.182
				s101.184,45.39,101.184,101.182S479.228,368.238,423.436,368.238z M423.436,168.78c-54.189,0-98.274,44.085-98.274,98.274
				c0,54.19,44.085,98.276,98.274,98.276s98.276-44.085,98.276-98.276C521.711,212.865,477.625,168.78,423.436,168.78z"/>
		</g>
		<g>
			<path fill="#F1F2F2" d="M459.691,238.935c6.039,7.775,9.67,17.513,9.67,28.12c0,25.363-20.561,45.925-45.925,45.925
				c-24.853,0-45.044-19.756-45.848-44.413c-0.016,0.506-0.076,1.001-0.076,1.511c0,25.968,21.051,47.019,47.019,47.019
				c25.968,0,47.019-21.051,47.019-47.019C471.549,258.116,467.046,247.233,459.691,238.935z"/>
		</g>
	</g>
	<g>
		<path fill="#FFFFFF" d="M354.205,393.953c-2.139-1.383-4.747-2.082-7.776-2.082c-10.104,0-17.162,7.643-17.162,18.589
			c0,10.739,7.217,18.532,17.162,18.532c3.013,0,5.622-0.687,7.776-2.048v1.363h8.989v-47.11h-8.989V393.953z M346.429,420.804
			c-5.041,0-8.174-3.965-8.174-10.344c0-6.476,3.056-10.344,8.174-10.344c5.084,0,8.12,3.868,8.12,10.344
			C354.549,416.839,351.437,420.804,346.429,420.804z"/>
		<path fill="#FFFFFF" d="M378.71,394.771v-2.159h-8.986v35.695h8.986v-17.22c0-6.819,3.208-10.923,8.631-10.972h1.241v-8.245
			h-0.727C384.187,391.871,381.118,392.845,378.71,394.771z"/>
		<path fill="#FFFFFF" d="M407.714,391.871c-10.105,0-17.163,7.643-17.163,18.589c0,10.739,7.218,18.532,17.163,18.532
			c9.912,0,17.106-7.794,17.106-18.532C424.82,399.514,417.785,391.871,407.714,391.871z M407.714,420.804
			c-5.044,0-8.177-3.965-8.177-10.344c0-6.476,3.057-10.344,8.177-10.344c5.083,0,8.117,3.868,8.117,10.344
			C415.831,416.839,412.721,420.804,407.714,420.804z"/>
		<path fill="#FFFFFF" d="M445.315,391.871c-3.059,0-5.686,0.699-7.833,2.082v-1.341h-8.986v47.053h8.986v-12.724
			c2.163,1.363,4.79,2.051,7.833,2.051c9.912,0,17.106-7.794,17.106-18.532C462.421,399.514,455.387,391.871,445.315,391.871z
			 M445.315,420.804c-5.041,0-8.174-3.965-8.174-10.344c0-6.478,3.056-10.344,8.174-10.344c5.084,0,8.12,3.865,8.12,10.344
			C453.435,416.839,450.324,420.804,445.315,420.804z"/>
		<rect x="467.241" y="381.198" fill="#FFFFFF" width="8.986" height="8.245"/>
		<rect x="467.241" y="392.612" fill="#FFFFFF" width="8.986" height="35.695"/>
		<path fill="#FFFFFF" d="M507.128,392.612v1.341c-2.141-1.383-4.75-2.082-7.776-2.082c-10.105,0-17.163,7.643-17.163,18.589
			c0,10.739,7.218,18.532,17.163,18.532c3.011,0,5.619-0.687,7.776-2.048v1.363h8.986v-35.695H507.128z M499.352,400.116
			c5.082,0,8.117,3.868,8.117,10.344c0,6.379-3.11,10.344-8.117,10.344c-5.044,0-8.177-3.965-8.177-10.344
			C491.175,403.984,494.233,400.116,499.352,400.116z"/>
	</g>
</g>
<rect x="272" y="148" fill="none" width="300.5" height="300.5"/>
</svg>
