<?xml version="1.0" encoding="utf-8"?>
<!-- Generator: Adobe Illustrator 17.0.0, SVG Export Plug-In . SVG Version: 6.00 Build 0)  -->
<!DOCTYPE svg PUBLIC "-//W3C//DTD SVG 1.1//EN" "http://www.w3.org/Graphics/SVG/1.1/DTD/svg11.dtd">
<svg version="1.1" id="Layer_1" xmlns="http://www.w3.org/2000/svg" xmlns:xlink="http://www.w3.org/1999/xlink" x="0px" y="0px"
	 width="841.89px" height="595.28px" viewBox="0 0 841.89 595.28" enable-background="new 0 0 841.89 595.28" xml:space="preserve">
<g>
	<g>
		<g>
			<path fill="#034EA2" d="M423.436,369.635c-59.811,0-108.47-47.732-108.47-106.401s48.659-106.4,108.47-106.4
				s108.472,47.73,108.472,106.4S483.247,369.635,423.436,369.635z M423.436,159.743c-58.206,0-105.562,46.425-105.562,103.492
				c0,57.068,47.356,103.493,105.562,103.493c58.208,0,105.563-46.425,105.563-103.493
				C528.999,206.168,481.643,159.743,423.436,159.743z"/>
		</g>
		<g>
			<path fill="#D85769" d="M416.626,368.238c-56.879,0-103.152-45.392-103.152-101.184s46.273-101.182,103.152-101.182
				c56.877,0,103.151,45.39,103.151,101.182S473.504,368.238,416.626,368.238z M416.626,168.78
				c-55.274,0-100.244,44.085-100.244,98.274c0,54.19,44.97,98.276,100.244,98.276s100.242-44.085,100.242-98.276
				C516.869,212.865,471.9,168.78,416.626,168.78z"/>
		</g>
		<path fill="#D85769" d="M423.436,167.326c-55.079,0-99.729,44.65-99.729,99.729s44.65,99.729,99.729,99.729
			s99.729-44.65,99.729-99.729S478.515,167.326,423.436,167.326z M423.436,312.979c-25.363,0-45.924-20.561-45.924-45.925
			c0-25.363,20.561-45.924,45.924-45.924c25.363,0,45.925,20.561,45.925,45.924C469.361,292.418,448.799,312.979,423.436,312.979z"
			/>
		<g>
			<path fill="#034EA2" d="M423.436,368.238c-55.792,0-101.182-45.392-101.182-101.184s45.39-101.182,101.182-101.182
				s101.184,45.39,101.184,101.182S479.228,368.238,423.436,368.238z M423.436,168.78c-54.189,0-98.274,44.085-98.274,98.274
				c0,54.19,44.085,98.276,98.274,98.276s98.276-44.085,98.276-98.276C521.711,212.865,477.625,168.78,423.436,168.78z"/>
		</g>
		<g>
			<path fill="#D85769" d="M459.691,238.935c6.039,7.775,9.67,17.513,9.67,28.12c0,25.363-20.561,45.925-45.925,45.925
				c-24.853,0-45.044-19.756-45.848-44.413c-0.016,0.506-0.076,1.001-0.076,1.511c0,25.968,21.051,47.019,47.019,47.019
				c25.968,0,47.019-21.051,47.019-47.019C471.549,258.116,467.046,247.233,459.691,238.935z"/>
		</g>
	</g>
	<g>
		<g>
			<path fill="#2B3990" d="M362.467,381.925v45.656h-7.535v-2.053c-2.167,1.769-5.021,2.738-8.503,2.738
				c-9.472,0-16.435-7.305-16.435-17.805s6.791-17.862,16.435-17.862c3.482,0,6.336,0.969,8.503,2.795v-13.468H362.467z
				 M355.276,410.46c0-6.45-2.968-11.071-8.847-11.071c-5.935,0-8.901,4.621-8.901,11.071c0,6.507,3.195,11.071,8.901,11.071
				C352.081,421.531,355.276,416.967,355.276,410.46z"/>
			<path fill="#2B3990" d="M346.429,428.992c-9.945,0-17.162-7.793-17.162-18.532c0-10.946,7.058-18.589,17.162-18.589
				c3.029,0,5.638,0.699,7.776,2.082v-12.755h8.989v47.11h-8.989v-1.363C352.051,428.305,349.442,428.992,346.429,428.992z
				 M346.429,393.325c-9.249,0-15.708,7.046-15.708,17.135c0,10.054,6.459,17.078,15.708,17.078c3.245,0,5.952-0.866,8.043-2.573
				l1.187-0.971v2.86h6.081v-44.202h-6.081v14.306l-1.196-1.008C352.397,394.209,349.695,393.325,346.429,393.325z M346.429,422.258
				c-5.849,0-9.628-4.632-9.628-11.798c0-7.277,3.689-11.798,9.628-11.798c5.906,0,9.574,4.522,9.574,11.798
				C356.003,417.626,352.245,422.258,346.429,422.258z M346.429,400.116c-5.118,0-8.174,3.868-8.174,10.344
				c0,6.379,3.133,10.344,8.174,10.344c5.009,0,8.12-3.965,8.12-10.344C354.549,403.984,351.513,400.116,346.429,400.116z"/>
		</g>
		<g>
			<path fill="#2B3990" d="M387.855,392.598v6.791c-0.17,0-0.341,0-0.514,0c0,0,0,0-0.057,0c-6.163,0.057-9.302,4.908-9.302,11.699
				v16.493h-7.532V393.34h7.532v3.082C380.323,393.967,383.575,392.598,387.855,392.598z"/>
			<path fill="#2B3990" d="M378.71,428.308h-8.986v-35.695h8.986v2.159c2.408-1.926,5.477-2.9,9.145-2.9h0.727v8.245h-1.241
				c-5.423,0.048-8.631,4.152-8.631,10.972V428.308z M371.178,426.854h6.078v-15.766c0-7.546,3.779-12.292,9.872-12.423v-5.325
				c-3.589,0.142-6.486,1.346-8.618,3.584l-1.254,1.312v-4.169h-6.078V426.854z"/>
		</g>
		<g>
			<path fill="#2B3990" d="M424.093,410.46c0,10.5-6.964,17.805-16.379,17.805c-9.475,0-16.436-7.305-16.436-17.805
				s6.791-17.862,16.436-17.862C417.302,392.598,424.093,399.96,424.093,410.46z M416.558,410.46c0-6.45-2.965-11.071-8.844-11.071
				c-5.936,0-8.904,4.621-8.904,11.071c0,6.507,3.198,11.071,8.904,11.071C413.363,421.531,416.558,416.967,416.558,410.46z"/>
			<path fill="#2B3990" d="M407.714,428.992c-9.945,0-17.163-7.793-17.163-18.532c0-10.946,7.058-18.589,17.163-18.589
				c10.071,0,17.106,7.643,17.106,18.589C424.82,421.199,417.626,428.992,407.714,428.992z M407.714,393.325
				c-9.249,0-15.709,7.046-15.709,17.135c0,10.054,6.46,17.078,15.709,17.078c9.07,0,15.652-7.183,15.652-17.078
				C423.366,400.372,416.93,393.325,407.714,393.325z M407.714,422.258c-5.851,0-9.631-4.632-9.631-11.798
				c0-7.277,3.691-11.798,9.631-11.798c5.903,0,9.571,4.522,9.571,11.798C417.285,417.626,413.528,422.258,407.714,422.258z
				 M407.714,400.116c-5.119,0-8.177,3.868-8.177,10.344c0,6.379,3.133,10.344,8.177,10.344c5.007,0,8.117-3.965,8.117-10.344
				C415.831,403.984,412.796,400.116,407.714,400.116z"/>
		</g>
		<g>
			<path fill="#2B3990" d="M461.694,410.46c0,10.5-6.961,17.805-16.379,17.805c-3.539,0-6.39-0.969-8.56-2.738v13.411h-7.532V393.34
				h7.532v2.053c2.17-1.826,5.021-2.795,8.56-2.795C454.903,392.598,461.694,399.96,461.694,410.46z M454.162,410.46
				c0-6.45-2.968-11.071-8.847-11.071c-5.936,0-8.901,4.621-8.901,11.071c0,6.507,3.195,11.071,8.901,11.071
				C450.964,421.531,454.162,416.967,454.162,410.46z"/>
			<path fill="#2B3990" d="M437.482,439.666h-8.986v-47.053h8.986v1.341c2.147-1.383,4.774-2.082,7.833-2.082
				c10.073,0,17.106,7.643,17.106,18.589c0,10.739-7.194,18.532-17.106,18.532c-3.043,0-5.67-0.687-7.833-2.051V439.666z
				 M429.95,438.211h6.078v-14.215l1.187,0.968c2.095,1.707,4.82,2.573,8.1,2.573c9.07,0,15.652-7.183,15.652-17.078
				c0-10.088-6.436-17.135-15.652-17.135c-3.3,0-6.024,0.883-8.092,2.624l-1.196,1.005v-2.888h-6.078V438.211z M445.315,422.258
				c-5.849,0-9.628-4.632-9.628-11.798c0-7.277,3.689-11.798,9.628-11.798c5.906,0,9.574,4.522,9.574,11.798
				C454.889,417.626,451.132,422.258,445.315,422.258z M445.315,400.116c-5.118,0-8.174,3.865-8.174,10.344
				c0,6.379,3.133,10.344,8.174,10.344c5.009,0,8.12-3.965,8.12-10.344C453.435,403.982,450.399,400.116,445.315,400.116z"/>
		</g>
		<g>
			<path fill="#2B3990" d="M475.5,388.716h-7.532v-6.791h7.532V388.716z M475.5,427.581h-7.532V393.34h7.532V427.581z"/>
			<path fill="#2B3990" d="M476.227,428.308h-8.986v-35.695h8.986V428.308z M468.695,426.854h6.078v-32.787h-6.078V426.854z
				 M476.227,389.443h-8.986v-8.245h8.986V389.443z M468.695,387.989h6.078v-5.337h-6.078V387.989z"/>
		</g>
		<g>
			<path fill="#2B3990" d="M515.388,393.34v34.241h-7.532v-2.053c-2.17,1.769-5.021,2.738-8.503,2.738
				c-9.475,0-16.436-7.305-16.436-17.805s6.791-17.862,16.436-17.862c3.482,0,6.334,0.969,8.503,2.795v-2.053H515.388z
				 M508.196,410.46c0-6.45-2.965-11.071-8.844-11.071c-5.936,0-8.904,4.621-8.904,11.071c0,6.507,3.198,11.071,8.904,11.071
				C505.001,421.531,508.196,416.967,508.196,410.46z"/>
			<path fill="#2B3990" d="M499.352,428.992c-9.945,0-17.163-7.793-17.163-18.532c0-10.946,7.058-18.589,17.163-18.589
				c3.026,0,5.635,0.699,7.776,2.082v-1.341h8.986v35.695h-8.986v-1.363C504.971,428.305,502.362,428.992,499.352,428.992z
				 M499.352,393.325c-9.249,0-15.709,7.046-15.709,17.135c0,10.054,6.46,17.078,15.709,17.078c3.243,0,5.949-0.866,8.043-2.573
				l1.187-0.968v2.857h6.078v-32.787h-6.078v2.888l-1.196-1.005C505.319,394.209,502.615,393.325,499.352,393.325z M499.352,422.258
				c-5.851,0-9.631-4.632-9.631-11.798c0-7.277,3.691-11.798,9.631-11.798c5.903,0,9.571,4.522,9.571,11.798
				C508.923,417.626,505.166,422.258,499.352,422.258z M499.352,400.116c-5.119,0-8.177,3.868-8.177,10.344
				c0,6.379,3.133,10.344,8.177,10.344c5.007,0,8.117-3.965,8.117-10.344C507.469,403.984,504.434,400.116,499.352,400.116z"/>
		</g>
	</g>
</g>
<rect x="272" y="148" fill="none" width="300.5" height="300.5"/>
</svg>
