<?xml version="1.0" standalone="no"?>
<!DOCTYPE svg PUBLIC "-//W3C//DTD SVG 1.1//EN" "http://www.w3.org/Graphics/SVG/1.1/DTD/svg11.dtd" >
<svg xmlns="http://www.w3.org/2000/svg">
<metadata>
This is a custom SVG webfont generated by Font Squirrel.
Designer    : Mark Simonson
Foundry URL : httpwwwmarksimonsoncom
</metadata>
<defs>
<font id="webfontpjOyaPQr" horiz-adv-x="572" >
<font-face units-per-em="1000" ascent="790" descent="-210" />
<missing-glyph horiz-adv-x="259" />
<glyph unicode="ffj" horiz-adv-x="792" d="M117 0h-75l92 417h-80l15 66h80l8 37q36 157 159 157q66 0 107 -41l-40 -46q-22 25 -61 25q-69 0 -90 -95l-8 -37h98l-15 -66h-98zM401 0h-75l92 417h-80l15 66h80l8 37q35 157 159 157q49 0 86 -23l-29 -54q-19 15 -51 15q-69 0 -90 -95l-8 -37h98l-15 -66h-98z M499 -196q-79 0 -115 42l37 53q26 -33 68 -33q70 0 89 87l117 530h75l-117 -530q-17 -74 -54 -111.5t-100 -37.5zM753 552q-20 0 -33 13t-13 31q0 25 18 41t39 16q19 0 32.5 -13t13.5 -31q0 -25 -18 -41t-39 -16z" />
<glyph unicode="fj" horiz-adv-x="509" d="M117 0h-75l92 417h-80l15 66h80l8 37q35 157 159 157q49 0 86 -23l-29 -54q-19 15 -51 15q-69 0 -90 -95l-8 -37h98l-15 -66h-98zM216 -196q-79 0 -115 42l37 53q26 -33 68 -33q70 0 89 87l117 530h75l-117 -530q-17 -74 -54 -111.5t-100 -37.5zM470 552q-20 0 -33 13 t-13 31q0 25 18 41t39 16q19 0 32.5 -13t13.5 -31q0 -25 -18 -41t-39 -16z" />
<glyph unicode="&#xfb00;" horiz-adv-x="567" d="M117 0h-75l92 417h-80l15 66h80l8 37q36 157 159 157q66 0 107 -41l-40 -46q-22 25 -61 25q-69 0 -90 -95l-8 -37h98l-15 -66h-98zM401 0h-75l92 417h-80l15 66h80l8 37q36 157 159 157q66 0 107 -41l-40 -46q-22 25 -61 25q-69 0 -90 -95l-8 -37h98l-15 -66h-98z" />
<glyph unicode="&#xfb01;" horiz-adv-x="509" d="M117 0h-75l92 417h-80l15 66h80l8 37q35 157 159 157q49 0 86 -23l-29 -54q-19 15 -51 15q-69 0 -90 -95l-8 -37h98l-15 -66h-98zM470 552q-20 0 -33 13t-13 31q0 25 18 41t39 16q19 0 32.5 -13t13.5 -31q0 -25 -18 -41t-39 -16zM380 0h-75l107 483h75z" />
<glyph unicode="&#xfb02;" horiz-adv-x="509" d="M117 0h-75l92 417h-80l15 66h80l8 37q35 157 159 157q49 0 86 -23l-29 -54q-19 15 -51 15q-69 0 -90 -95l-8 -37h98l-15 -66h-98zM380 0h-75l147 667h75z" />
<glyph unicode="&#xfb03;" horiz-adv-x="792" d="M117 0h-75l92 417h-80l15 66h80l8 37q36 157 159 157q66 0 107 -41l-40 -46q-22 25 -61 25q-69 0 -90 -95l-8 -37h98l-15 -66h-98zM401 0h-75l92 417h-80l15 66h80l8 37q35 157 159 157q49 0 86 -23l-29 -54q-19 15 -51 15q-69 0 -90 -95l-8 -37h98l-15 -66h-98zM753 552 q-20 0 -33 13t-13 31q0 25 18 41t39 16q19 0 32.5 -13t13.5 -31q0 -25 -18 -41t-39 -16zM663 0h-75l107 483h75z" />
<glyph unicode="&#xfb04;" horiz-adv-x="792" d="M117 0h-75l92 417h-80l15 66h80l8 37q36 157 159 157q66 0 107 -41l-40 -46q-22 25 -61 25q-69 0 -90 -95l-8 -37h98l-15 -66h-98zM401 0h-75l92 417h-80l15 66h80l8 37q35 157 159 157q49 0 86 -23l-29 -54q-19 15 -51 15q-69 0 -90 -95l-8 -37h98l-15 -66h-98zM663 0 h-75l147 667h75z" />
<glyph unicode="fb" horiz-adv-x="859" d="M117 0h-75l92 417h-80l15 66h80l8 37q35 157 159 157q49 0 86 -23l-29 -54q-19 15 -51 15q-69 0 -90 -95l-8 -37h98l-15 -66h-98zM565 -12q-55 0 -99.5 23.5t-68.5 64.5l-17 -76h-75l147 667h75l-55 -253q65 81 159 81q85 0 136 -53t51 -146q0 -124 -70.5 -216 t-182.5 -92zM555 55q80 0 132 68t52 159q0 67 -37 106.5t-98 39.5q-43 0 -82.5 -23.5t-65.5 -58.5l-47 -213q19 -34 57.5 -56t88.5 -22z" />
<glyph unicode="fh" horiz-adv-x="836" d="M117 0h-75l92 417h-80l15 66h80l8 37q35 157 159 157q49 0 86 -23l-29 -54q-19 15 -51 15q-69 0 -90 -95l-8 -37h98l-15 -66h-98zM707 0h-75l70 318q5 20 5 33q0 77 -100 77q-75 0 -149 -76l-77 -352h-75l147 667h74l-56 -254q84 82 171 82q65 0 104.5 -31t39.5 -88 q0 -21 -6 -41z" />
<glyph unicode="fk" horiz-adv-x="798" d="M117 0h-75l92 417h-80l15 66h80l8 37q35 157 159 157q49 0 86 -23l-29 -54q-19 15 -51 15q-69 0 -90 -95l-8 -37h98l-15 -66h-98zM730 0h-90l-128 220l-101 -82l-31 -138h-75l147 667h75l-96 -436l306 252h99l-263 -219z" />
<glyph unicode=" "  horiz-adv-x="259" />
<glyph unicode="&#x09;" horiz-adv-x="259" />
<glyph unicode="&#xa0;" horiz-adv-x="259" />
<glyph unicode="!" horiz-adv-x="230" d="M133 187h-62l90 480h94zM66 -10q-21 0 -35.5 14.5t-14.5 36.5q0 24 17.5 41.5t42.5 17.5q21 0 35.5 -15t14.5 -36q0 -25 -17.5 -42t-42.5 -17z" />
<glyph unicode="&#x22;" horiz-adv-x="344" d="M153 412h-37q19 195 20 210q2 24 17 39.5t37 15.5q17 0 28.5 -12t11.5 -30q0 -4 -1 -8t-2.5 -8.5t-1.5 -6.5zM300 412h-37q19 195 20 210q2 24 17 39.5t37 15.5q17 0 28.5 -12t11.5 -30q0 -8 -6 -23z" />
<glyph unicode="#" horiz-adv-x="591" d="M246 0h-61l101 181h-111l-100 -181h-62l101 181h-106l28 53h108l110 199h-108l27 52h111l99 182h62l-100 -182h110l100 182h61l-101 -182h107l-26 -52h-109l-112 -199h111l-28 -53h-112zM314 234l111 199h-110l-110 -199h109z" />
<glyph unicode="$" horiz-adv-x="593" d="M291 -12q-3 0 -8.5 0.5t-8.5 0.5l-19 -89h-61l21 95q-135 25 -194 113l57 59q53 -75 153 -98l54 241q-39 16 -63.5 29t-52.5 33.5t-41.5 48t-13.5 62.5q0 79 67.5 137t169.5 58q2 0 7.5 -0.5t8.5 -0.5l20 91h61l-22 -98q111 -24 165 -98l-56 -58q-44 59 -126 81l-48 -218 q39 -17 64 -30t53 -34.5t42 -50t14 -63.5q0 -85 -65.5 -148t-177.5 -63zM445 186q0 34 -26.5 56.5t-77.5 44.5l-50 -225h7q72 0 109.5 38t37.5 86zM203 495q0 -31 26 -52.5t76 -42.5l45 204h-9q-58 0 -98 -32.5t-40 -76.5z" />
<glyph unicode="%" horiz-adv-x="732" d="M129 0h-55l573 667h56zM505 -12q-63 0 -106.5 37.5t-43.5 97.5q0 85 53 139.5t125 54.5q63 0 106.5 -37.5t43.5 -97.5q0 -85 -53 -139.5t-125 -54.5zM506 39q48 0 82.5 39.5t34.5 98.5q0 38 -26 63.5t-66 25.5q-47 0 -81.5 -39.5t-34.5 -98.5q0 -38 25.5 -63.5 t65.5 -25.5zM236 348q-62 0 -105.5 37.5t-43.5 97.5q0 85 53 139.5t125 54.5q63 0 106 -37.5t43 -97.5q0 -85 -52.5 -139.5t-125.5 -54.5zM238 399q48 0 82.5 39.5t34.5 98.5q0 38 -26 63.5t-66 25.5q-47 0 -81.5 -39.5t-34.5 -98.5q0 -38 25.5 -63.5t65.5 -25.5z" />
<glyph unicode="&#x26;" horiz-adv-x="642" d="M538 0h-95q-25 31 -43 56q-90 -68 -183 -68q-88 0 -144.5 43.5t-56.5 123.5q0 46 15.5 83t45.5 63.5t61 43.5t74 35q-23 66 -23 116q0 74 55 127.5t130 53.5q64 0 106 -31.5t42 -87.5q0 -34 -13.5 -62.5t-30 -46.5t-51 -37t-55.5 -28l-65 -26q23 -50 51 -95 q34 -59 63 -103q66 72 107 147l57 -35q-68 -103 -128 -165zM226 50q65 0 138 58q-49 71 -71 109q-29 49 -59 111q-64 -29 -99 -66.5t-35 -96.5q0 -55 36.5 -85t89.5 -30zM267 496q0 -37 18 -88q40 15 64.5 26t50.5 28t38 39t12 49q0 32 -21 50.5t-53 18.5q-41 0 -75 -33.5 t-34 -89.5z" />
<glyph unicode="'" horiz-adv-x="199" d="M153 412h-37q19 195 20 210q2 24 17 39.5t37 15.5q17 0 28.5 -12t11.5 -30q0 -4 -1 -8t-2.5 -8.5t-1.5 -6.5z" />
<glyph unicode="(" horiz-adv-x="248" d="M141 -169l-53 -30q-63 124 -63 290q0 156 66.5 309t190.5 285l39 -38q-217 -283 -217 -584q0 -105 37 -232z" />
<glyph unicode=")" horiz-adv-x="248" d="M106 655l53 30q63 -124 63 -290q0 -156 -66.5 -309t-190.5 -285l-39 38q217 283 217 584q0 105 -37 232z" />
<glyph unicode="*" horiz-adv-x="340" d="M224 389h-46l32 117l-110 -50l-14 40l114 41l-90 62l31 36l82 -71l19 113h47l-32 -117l110 51l13 -41l-112 -41l89 -62l-31 -36l-83 71z" />
<glyph unicode="+" horiz-adv-x="499" d="M484 311h-191l-48 -213h-57l47 213h-191l11 52h192l45 207h58l-46 -207h192z" />
<glyph unicode="," horiz-adv-x="230" d="M128 42q0 -46 -33.5 -92t-81.5 -71l-31 33q67 34 84 84h-8q-18 0 -30.5 12.5t-12.5 32.5q0 24 18 41.5t42 17.5q23 0 38 -15.5t15 -42.5z" />
<glyph unicode="-" horiz-adv-x="300" d="M262 209h-240l14 66h240z" />
<glyph unicode="." horiz-adv-x="231" d="M66 -10q-21 0 -35.5 14.5t-14.5 36.5q0 24 17.5 41.5t42.5 17.5q21 0 35.5 -15t14.5 -36q0 -25 -17.5 -42t-42.5 -17z" />
<glyph unicode="/" horiz-adv-x="296" d="M2 -20h-62l393 707h63z" />
<glyph unicode="0" horiz-adv-x="612" d="M278 -12q-104 0 -161.5 69.5t-57.5 190.5q0 103 37 200t111 163t167 66q104 0 160.5 -69t56.5 -190q0 -103 -36.5 -200t-110 -163.5t-166.5 -66.5zM285 62q66 0 118 59t77.5 140t25.5 162q0 83 -34 131.5t-107 48.5q-65 0 -117.5 -58t-78.5 -139.5t-26 -162.5 q0 -82 35 -131.5t107 -49.5z" />
<glyph unicode="1" horiz-adv-x="339" d="M207 0h-83l123 558l-132 -114l-38 51l204 172h73z" />
<glyph unicode="2" horiz-adv-x="588" d="M458 0h-458l18 82l152 95q59 38 124.5 85.5t101 83.5t59.5 75.5t24 76.5q0 49 -40 77t-104 28q-101 0 -171 -65l-39 59q38 36 95.5 58t119.5 22q95 0 161 -45t66 -130q0 -54 -32 -109.5t-95.5 -111t-130.5 -102.5t-162 -105h327z" />
<glyph unicode="3" horiz-adv-x="557" d="M252 -12q-86 0 -157 38.5t-98 100.5l60 47q25 -52 78.5 -82t115.5 -30q73 0 116 39.5t43 100.5q0 47 -39 75t-109 28q-53 0 -64 -1l18 76q10 -1 90 -1q68 0 114 30t46 88q0 46 -41.5 76t-110.5 30q-96 0 -169 -65l-35 56q85 83 210 83q103 0 167 -44.5t64 -123.5 q0 -71 -55.5 -118t-125.5 -53q53 -12 87.5 -49t34.5 -94q0 -87 -68 -147t-172 -60z" />
<glyph unicode="4" horiz-adv-x="558" d="M378 0h-83l37 169h-317l17 76l375 422h118l-94 -425h94l-16 -73h-94zM348 242l77 348l-311 -348h234z" />
<glyph unicode="5" horiz-adv-x="590" d="M279 -12q-174 0 -244 133l63 50q52 -109 185 -109q70 0 118 46.5t48 113.5q0 60 -41.5 93.5t-108.5 33.5q-75 0 -139 -48l-54 27l74 339h408l-16 -74h-325l-49 -220q56 45 140 45t141 -49.5t57 -137.5q0 -101 -72.5 -172t-184.5 -71z" />
<glyph unicode="6" horiz-adv-x="591" d="M283 -12q-109 0 -168.5 64.5t-59.5 181.5q0 73 20.5 148.5t58.5 142.5t103.5 109.5t145.5 42.5q138 0 201 -100l-56 -56q-43 82 -150 82q-61 0 -109.5 -39.5t-74.5 -92t-43 -118.5q-5 -15 -5 -21q30 33 83.5 59.5t108.5 26.5q89 0 145.5 -47.5t56.5 -128.5 q0 -103 -75 -178.5t-182 -75.5zM284 62q72 0 121 50.5t49 118.5q0 54 -41 86t-108 32q-93 0 -168 -83q-2 -16 -2 -47q0 -71 39.5 -114t109.5 -43z" />
<glyph unicode="7" horiz-adv-x="515" d="M161 0h-96l398 593h-355l16 74h455l-13 -57z" />
<glyph unicode="8" horiz-adv-x="582" d="M272 -12q-105 0 -173.5 44.5t-68.5 125.5q0 73 54.5 124.5t147.5 70.5q-49 20 -82.5 56t-33.5 85q0 88 72 135.5t165 47.5t160.5 -44t67.5 -120q0 -71 -52 -117.5t-137 -59.5q52 -24 88.5 -63.5t36.5 -94.5q0 -83 -72 -136.5t-173 -53.5zM320 378q77 5 124.5 37t47.5 85 q0 43 -42 72.5t-102 29.5q-62 0 -105.5 -31.5t-43.5 -84.5q0 -38 38.5 -68t82.5 -40zM274 62q63 0 111.5 34t48.5 90q0 44 -40.5 76.5t-88.5 44.5q-81 -5 -134 -41.5t-53 -92.5q0 -53 44.5 -82t111.5 -29z" />
<glyph unicode="9" horiz-adv-x="591" d="M347 678q109 0 168.5 -64.5t59.5 -181.5q0 -73 -20.5 -148.5t-59 -142.5t-104 -109.5t-145.5 -42.5q-138 0 -201 100l56 56q43 -82 150 -82q47 0 86 22t66 59.5t45 79t30 89.5q3 9 6 21q-31 -34 -84 -60t-108 -26q-89 0 -146 48t-57 128q0 103 75 178.5t183 75.5z M345 604q-72 0 -120.5 -50.5t-48.5 -118.5q0 -54 41 -86t107 -32q93 0 169 83q2 18 2 47q0 71 -40 114t-110 43z" />
<glyph unicode=":" horiz-adv-x="225" d="M66 -10q-21 0 -35.5 14.5t-14.5 36.5q0 24 17.5 41.5t42.5 17.5q21 0 35.5 -15t14.5 -36q0 -25 -17.5 -42t-42.5 -17zM152 380q-21 0 -35.5 15t-14.5 36q0 25 17.5 42t42.5 17q21 0 35.5 -14.5t14.5 -35.5q0 -25 -17.5 -42.5t-42.5 -17.5z" />
<glyph unicode=";" horiz-adv-x="230" d="M128 42q0 -46 -33.5 -92t-81.5 -71l-31 33q67 34 84 84h-8q-18 0 -30.5 12.5t-12.5 32.5q0 24 18 41.5t42 17.5q23 0 38 -15.5t15 -42.5zM152 380q-21 0 -35.5 15t-14.5 36q0 25 17.5 42t42.5 17q21 0 35.5 -14.5t14.5 -35.5q0 -25 -17.5 -42.5t-42.5 -17.5z" />
<glyph unicode="&#x3c;" horiz-adv-x="499" d="M435 90l-393 218l13 53l489 219l-15 -66l-417 -183l336 -181z" />
<glyph unicode="=" horiz-adv-x="499" d="M505 404h-441l12 53h441zM462 211h-441l12 53h441z" />
<glyph unicode="&#x3e;" horiz-adv-x="499" d="M483 308l-489 -218l15 66l418 181l-337 183l13 60l392 -219z" />
<glyph unicode="?" horiz-adv-x="462" d="M257 212l-67 -27q-23 30 -23 71q0 40 24.5 70t59.5 48l69 38q35 18 59.5 44t24.5 61q0 39 -32.5 62.5t-89.5 23.5q-89 0 -153 -64l-38 56q88 82 201 82q88 0 144.5 -40.5t56.5 -105.5q0 -49 -26 -86t-63.5 -58.5t-74.5 -39.5t-63 -42t-26 -54q0 -22 17 -39zM174 -10 q-21 0 -35.5 14.5t-14.5 36.5q0 24 18 41.5t43 17.5q21 0 35.5 -15t14.5 -36q0 -25 -18 -42t-43 -17z" />
<glyph unicode="@" horiz-adv-x="783" d="M372 -70q-136 0 -226.5 90.5t-90.5 223.5q0 160 119.5 277t277.5 117q139 0 227 -91.5t88 -225.5q0 -110 -52 -173t-121 -63q-40 0 -64.5 23.5t-26.5 57.5v7q-27 -39 -70 -63.5t-89 -24.5q-69 0 -111 45t-42 118q0 102 72 176.5t163 74.5q46 0 79.5 -22t48.5 -56l13 62 h68l-57 -271q-2 -12 -2 -21q0 -24 13.5 -38t33.5 -14q38 0 73.5 45t35.5 137q0 124 -78.5 203.5t-204.5 79.5q-144 0 -252 -108.5t-108 -249.5q0 -121 81.5 -202t205.5 -81q97 0 186 56l18 -26q-98 -63 -208 -63zM365 141q86 0 148 90l29 139q-10 28 -36.5 50.5t-66.5 22.5 q-73 0 -124.5 -58t-51.5 -133q0 -49 27 -80t75 -31z" />
<glyph unicode="A" horiz-adv-x="658" d="M595 0h-90l-27 149h-332l-92 -149h-99l416 667h103zM470 222l-62 360l-221 -360h283z" />
<glyph unicode="B" horiz-adv-x="629" d="M333 0h-309l147 667h277q74 0 122 -43t48 -110q0 -69 -45.5 -120.5t-108.5 -58.5q42 -11 69.5 -50.5t27.5 -86.5q0 -81 -58.5 -139.5t-169.5 -58.5zM397 378q68 0 99.5 36.5t31.5 87.5q0 39 -29 65t-72 26h-189l-48 -215h207zM331 74q68 0 106.5 38.5t38.5 91.5 q0 44 -29 72t-78 28h-195l-51 -230h208z" />
<glyph unicode="C" horiz-adv-x="676" d="M368 -12q-134 0 -221 80.5t-87 211.5q0 88 31.5 163.5t83.5 126.5t120 79.5t140 28.5q97 0 167 -42t106 -115l-80 -31q-28 57 -80 85.5t-117 28.5q-113 0 -198 -90t-85 -230q0 -99 61 -160.5t164 -61.5q99 0 179 77l62 -47q-100 -104 -246 -104z" />
<glyph unicode="D" horiz-adv-x="700" d="M251 0h-227l147 667h223q114 0 195.5 -81t81.5 -204q0 -70 -25.5 -136.5t-75 -122t-132.5 -89.5t-187 -34zM238 593l-115 -519h142q143 0 231 88.5t88 215.5q0 93 -58.5 154t-147.5 61h-140z" />
<glyph unicode="E" horiz-adv-x="569" d="M461 0h-437l147 667h437l-16 -74h-354l-48 -215h348l-17 -74h-347l-51 -230h354z" />
<glyph unicode="F" horiz-adv-x="551" d="M107 0h-83l147 667h437l-16 -74h-354l-48 -215h348l-17 -74h-347z" />
<glyph unicode="G" horiz-adv-x="713" d="M368 -12q-137 0 -222.5 81t-85.5 211q0 171 111 284.5t270 113.5q91 0 159 -40t104 -106l-75 -34q-26 50 -79 78t-119 28q-114 0 -198.5 -92t-84.5 -228q0 -100 61.5 -161t163.5 -61q95 0 176 71l30 136h-230l16 74h313l-54 -244q-108 -111 -256 -111z" />
<glyph unicode="H" horiz-adv-x="712" d="M580 0h-83l67 306h-390l-67 -306h-83l147 667h83l-63 -287h390l63 287h83z" />
<glyph unicode="I" horiz-adv-x="239" d="M107 0h-83l147 667h83z" />
<glyph unicode="J" horiz-adv-x="475" d="M158 -12q-58 0 -106 21.5t-74 62.5l50 60q39 -70 126 -70q60 0 98 37.5t53 102.5l102 465h83l-103 -466q-47 -213 -229 -213z" />
<glyph unicode="K" horiz-adv-x="601" d="M531 0h-98l-190 304l-87 -80l-49 -224h-83l147 667h83l-75 -337l365 337h109l-348 -316z" />
<glyph unicode="L" horiz-adv-x="493" d="M406 0h-393l147 667h83l-131 -593h310z" />
<glyph unicode="M" horiz-adv-x="809" d="M677 0h-83l124 561l-350 -561h-34l-103 561l-124 -561h-83l147 667h116l93 -514l321 514h123z" />
<glyph unicode="N" horiz-adv-x="708" d="M576 0h-80l-270 537l-119 -537h-83l147 667h85l267 -526l117 526h83z" />
<glyph unicode="O" horiz-adv-x="765" d="M368 -12q-133 0 -220.5 78.5t-87.5 213.5q0 167 109 282.5t266 115.5q133 0 220.5 -78t87.5 -213q0 -168 -109 -283.5t-266 -115.5zM373 62q116 0 199 91.5t83 228.5q0 104 -64 163t-161 59q-117 0 -199.5 -91.5t-82.5 -228.5q0 -104 64 -163t161 -59z" />
<glyph unicode="P" horiz-adv-x="587" d="M107 0h-83l147 667h259q74 0 124.5 -51t50.5 -121q0 -89 -64 -159.5t-192 -70.5h-184zM356 339h-1q76 0 119.5 43t43.5 106q0 43 -32 74t-79 31h-169l-57 -254h175z" />
<glyph unicode="Q" horiz-adv-x="765" d="M368 -12q-133 0 -220.5 78.5t-87.5 213.5q0 167 109 282.5t266 115.5q133 0 220.5 -78t87.5 -213q0 -99 -41 -183.5t-111 -139.5l41 -58l-66 -37l-39 55q-75 -36 -159 -36zM373 62q57 0 110 25l-79 112l66 36l76 -107q109 96 109 254q0 104 -64 163t-161 59 q-117 0 -199.5 -91.5t-82.5 -228.5q0 -104 64 -163t161 -59z" />
<glyph unicode="R" horiz-adv-x="609" d="M508 0h-92l-112 265h-139l-58 -265h-83l147 667h245q76 0 132.5 -47.5t56.5 -126.5q0 -93 -60 -155t-157 -69zM355 338h2q75 0 118 42.5t43 105.5q0 46 -34.5 76.5t-79.5 30.5h-166l-57 -255h174z" />
<glyph unicode="S" horiz-adv-x="586" d="M286 -12q-88 0 -161.5 33.5t-108.5 86.5l57 59q35 -49 93 -77t127 -28q72 0 109.5 38t37.5 86q0 30 -24.5 54t-61.5 39t-79.5 34t-79.5 38t-61.5 53.5t-24.5 78.5q0 79 67.5 137t169.5 58q76 0 140.5 -28.5t99.5 -77.5l-56 -58q-33 44 -85 67t-109 23q-58 0 -98 -32.5 t-40 -76.5q0 -33 34 -58t83 -44t97.5 -41t82.5 -61t34 -92q0 -85 -65.5 -148t-177.5 -63z" />
<glyph unicode="T" horiz-adv-x="570" d="M272 0h-83l131 593h-211l16 74h506l-16 -74h-212z" />
<glyph unicode="U" horiz-adv-x="701" d="M336 -12q-123 0 -191.5 60t-68.5 162q0 24 5 49l90 408h84l-90 -406q-5 -35 -5 -42q1 -70 47.5 -113.5t128.5 -43.5q88 0 136.5 50.5t69.5 148.5l90 406h84l-90 -407q-29 -132 -96.5 -202t-193.5 -70z" />
<glyph unicode="V" horiz-adv-x="658" d="M327 0h-103l-122 667h91l98 -576l352 576h99z" />
<glyph unicode="W" horiz-adv-x="883" d="M624 0h-90l-28 538l-266 -538h-90l-43 667h90l25 -556l275 556h70l30 -556l270 556h95z" />
<glyph unicode="X" horiz-adv-x="652" d="M586 0h-95l-154 282l-272 -282h-107l337 348l-175 319h95l143 -265l251 265h109l-318 -330z" />
<glyph unicode="Y" horiz-adv-x="626" d="M301 0h-83l62 282l-178 385h91l139 -310l275 310h103l-347 -385z" />
<glyph unicode="Z" horiz-adv-x="585" d="M483 0h-489l15 69l485 524h-369l16 74h482l-15 -69l-487 -524h378z" />
<glyph unicode="[" horiz-adv-x="243" d="M129 -190h-185l192 868h186l-12 -55h-128l-168 -758h128z" />
<glyph unicode="\" horiz-adv-x="296" d="M178 -20l-80 707h59l80 -707h-59z" />
<glyph unicode="]" horiz-adv-x="243" d="M107 -190h-186l13 55h127l168 758h-128l12 55h187z" />
<glyph unicode="^" horiz-adv-x="432" d="M432 333h-59l-73 279l-197 -279h-65l243 334h57z" />
<glyph unicode="_" horiz-adv-x="564" d="M491 -95h-569l13 55h569z" />
<glyph unicode="`" horiz-adv-x="226" d="M295 556h-57l-137 144h78z" />
<glyph unicode="&#x2cb;" horiz-adv-x="226" d="M295 556h-57l-137 144h78z" />
<glyph unicode="a" horiz-adv-x="575" d="M293 495q55 0 99.5 -23.5t68.5 -64.5l17 76h75l-107 -483h-75l15 69q-65 -81 -159 -81q-84 0 -135.5 53t-51.5 146q0 124 70.5 216t182.5 92zM303 428q-80 0 -132 -68t-52 -159q0 -67 37 -106.5t98 -39.5q43 0 82.5 23.5t65.5 58.5l47 213q-19 34 -57.5 56t-88.5 22z" />
<glyph unicode="b" horiz-adv-x="575" d="M281 -12q-55 0 -99.5 23.5t-68.5 64.5l-17 -76h-75l147 667h75l-55 -253q65 81 159 81q85 0 136 -53t51 -146q0 -124 -70.5 -216t-182.5 -92zM271 55q80 0 132 68t52 159q0 67 -37 106.5t-98 39.5q-43 0 -82.5 -23.5t-65.5 -58.5l-47 -213q19 -34 57.5 -56t88.5 -22z" />
<glyph unicode="c" horiz-adv-x="496" d="M262 -12q-99 0 -160.5 58t-61.5 158q0 120 79.5 205.5t192.5 85.5q127 0 181 -90l-57 -43q-38 66 -122 66q-88 0 -142 -66t-54 -157q0 -72 42.5 -111t108.5 -39q74 0 123 58l42 -51q-72 -74 -172 -74z" />
<glyph unicode="d" horiz-adv-x="575" d="M293 495q55 0 99.5 -23.5t68.5 -64.5l58 260h75l-148 -667h-75l15 69q-65 -81 -159 -81q-84 0 -135.5 53t-51.5 146q0 124 70.5 216t182.5 92zM303 428q-80 0 -132 -68t-52 -159q0 -67 37 -106.5t98 -39.5q43 0 82.5 23.5t65.5 58.5l47 213q-19 34 -57.5 56t-88.5 22z " />
<glyph unicode="e" horiz-adv-x="563" d="M276 -12q-109 0 -172.5 58.5t-63.5 155.5q0 121 79 207t193 86q95 0 151.5 -59t56.5 -152q0 -30 -8 -67h-393q-2 -8 -2 -23q0 -60 43 -102t121 -42q81 0 139 48l26 -53q-76 -57 -170 -57zM448 273h3q0 2 0.5 8.5t0.5 9.5q0 63 -38.5 102.5t-108.5 39.5q-65 0 -116 -47.5 t-63 -112.5h322z" />
<glyph unicode="f" horiz-adv-x="284" d="M117 0h-75l92 417h-80l15 66h80l8 37q36 157 159 157q66 0 107 -41l-40 -46q-22 25 -61 25q-69 0 -90 -95l-8 -37h98l-15 -66h-98z" />
<glyph unicode="g" horiz-adv-x="575" d="M212 -196q-148 0 -216 82l47 51q49 -71 167 -71q128 0 163 150l14 61q-64 -81 -164 -81q-81 0 -132.5 50.5t-51.5 148.5q0 121 70 210.5t182 89.5q48 0 95 -24.5t74 -63.5l17 76h76l-105 -467q-47 -212 -236 -212zM253 62q40 0 80 22t68 56l46 208q-20 37 -61 58.5 t-89 21.5q-79 0 -129 -66.5t-50 -154.5q0 -67 36.5 -106t98.5 -39z" />
<glyph unicode="h" horiz-adv-x="552" d="M423 0h-75l70 318q5 20 5 33q0 77 -100 77q-75 0 -149 -76l-77 -352h-75l147 667h74l-56 -254q84 82 171 82q65 0 104.5 -31t39.5 -88q0 -21 -6 -41z" />
<glyph unicode="i" horiz-adv-x="225" d="M186 552q-20 0 -33 13t-13 31q0 25 18 41t39 16q19 0 32.5 -13t13.5 -31q0 -25 -18 -41t-39 -16zM96 0h-75l107 483h75z" />
<glyph unicode="j" horiz-adv-x="225" d="M-68 -196q-79 0 -115 42l37 53q26 -33 68 -33q70 0 89 87l117 530h75l-117 -530q-17 -74 -54 -111.5t-100 -37.5zM186 552q-20 0 -33 13t-13 31q0 25 18 41t39 16q19 0 32.5 -13t13.5 -31q0 -25 -18 -41t-39 -16z" />
<glyph unicode="k" horiz-adv-x="514" d="M446 0h-90l-128 220l-101 -82l-31 -138h-75l147 667h75l-96 -436l306 252h99l-263 -219z" />
<glyph unicode="l" horiz-adv-x="225" d="M96 0h-75l147 667h75z" />
<glyph unicode="m" horiz-adv-x="808" d="M679 0h-75l72 324q3 15 3 27q0 36 -23.5 56.5t-58.5 20.5q-67 0 -132 -76l-78 -352h-75l72 324q4 17 4 31q0 33 -22 53t-62 20q-64 0 -130 -76l-78 -352h-75l107 483h75l-16 -70q71 82 152 82q58 0 92.5 -32.5t34.5 -63.5v-1q77 97 165 97q53 0 90 -31.5t37 -87.5 q0 -11 -5 -41z" />
<glyph unicode="n" horiz-adv-x="552" d="M422 0h-74l70 317q5 25 5 34q0 77 -100 77q-77 0 -149 -76l-78 -352h-75l107 483h75l-16 -70q84 82 171 82q65 0 104.5 -31t39.5 -88q0 -19 -6 -41z" />
<glyph unicode="o" d="M261 -12q-102 0 -161.5 59t-59.5 156q0 117 77.5 204.5t191.5 87.5q102 0 161.5 -59t59.5 -155q0 -118 -77.5 -205.5t-191.5 -87.5zM263 55q80 0 134 67.5t54 155.5q0 69 -38 109.5t-106 40.5q-80 0 -134 -67.5t-54 -155.5q0 -69 38 -109.5t106 -40.5z" />
<glyph unicode="p" d="M281 -12q-55 0 -99.5 23.5t-68.5 64.5l-58 -260h-75l148 667h75l-15 -69q65 81 159 81q85 0 136 -53t51 -146q0 -124 -70.5 -216t-182.5 -92zM271 55q80 0 132 68t52 159q0 67 -37 106.5t-98 39.5q-43 0 -82.5 -23.5t-65.5 -58.5l-47 -213q19 -34 57.5 -56t88.5 -22z" />
<glyph unicode="q" d="M293 495q55 0 99.5 -23.5t68.5 -64.5l17 76h75l-148 -667h-75l56 253q-65 -81 -159 -81q-84 0 -135.5 53t-51.5 146q0 124 70.5 216t182.5 92zM303 428q-80 0 -132 -68t-52 -159q0 -67 37 -106.5t98 -39.5q43 0 82.5 23.5t65.5 58.5l47 213q-19 34 -57.5 56t-88.5 22z " />
<glyph unicode="r" horiz-adv-x="330" d="M96 0h-75l107 483h75l-17 -73q38 43 79.5 63.5t100.5 20.5l-17 -78q-12 4 -38 4q-40 0 -77.5 -23t-62.5 -56z" />
<glyph unicode="s" horiz-adv-x="465" d="M207 -12q-135 0 -204 86l48 51q21 -31 65 -53.5t95 -22.5q50 0 80.5 25t30.5 60q0 25 -26 44t-63.5 32.5t-75 29t-63.5 42.5t-26 64q0 63 49 106t134 43q59 0 109 -22.5t76 -56.5l-44 -49q-17 28 -58 47.5t-87 19.5q-47 0 -75.5 -21t-28.5 -53q0 -23 26 -41t63.5 -31 t75 -29t63.5 -44.5t26 -67.5q0 -66 -51 -112.5t-139 -46.5z" />
<glyph unicode="t" horiz-adv-x="294" d="M167 -12q-111 0 -111 88q0 12 3 28l70 313h-80l15 66h80l29 132h74l-29 -132h99l-15 -66h-98l-67 -298q-1 -5 -1 -19q0 -45 48 -45q26 0 46 16l8 -60q-30 -23 -71 -23z" />
<glyph unicode="u" horiz-adv-x="551" d="M128 483h75l-70 -317q-5 -22 -5 -33q0 -78 100 -78q76 0 148 76l78 352h75l-107 -483h-75l16 70q-84 -82 -170 -82q-66 0 -105 31t-39 88q0 13 5 41z" />
<glyph unicode="v" horiz-adv-x="490" d="M232 0h-82l-94 483h79l72 -396l249 396h84z" />
<glyph unicode="w" horiz-adv-x="734" d="M515 0h-76l-40 388l-212 -388h-75l-47 483h76l31 -385l213 385h65l41 -385l203 385h82z" />
<glyph unicode="x" horiz-adv-x="487" d="M421 0h-83l-101 198l-189 -198h-90l239 248l-121 235h82l94 -184l175 184h90l-228 -235z" />
<glyph unicode="y" horiz-adv-x="490" d="M-46 -185l26 67q18 -8 48 -8q39 0 71 48l49 75l-92 486h79l72 -396l249 396h84l-372 -581q-61 -98 -150 -98q-37 0 -64 11z" />
<glyph unicode="z" horiz-adv-x="472" d="M366 0h-368l12 59l342 358h-262l15 66h364l-13 -57l-344 -360h268z" />
<glyph unicode="{" horiz-adv-x="261" d="M147 -190h-48q-45 0 -78.5 30t-33.5 77q0 15 3 27l46 206q2 12 2 17q0 23 -10.5 37.5t-28.5 14.5l12 50q52 0 67 69l46 205q15 67 55 101t99 34h62l-13 -55h-61q-32 0 -54 -20.5t-30 -58.5l-48 -218q-17 -71 -65 -88q29 -15 29 -54q0 -18 -4 -34l-45 -205q-2 -12 -2 -21 q0 -26 16 -42.5t41 -16.5h55z" />
<glyph unicode="|" horiz-adv-x="211" d="M153 -20h-55v707h55v-707z" />
<glyph unicode="}" horiz-adv-x="261" d="M113 678h48q45 0 78.5 -30t33.5 -77q0 -13 -4 -27l-45 -206q-2 -12 -2 -17q0 -22 10 -37t28 -15l-11 -50q-52 0 -67 -69l-46 -205q-15 -67 -55.5 -101t-99.5 -34h-61l12 55h62q32 0 54 20.5t30 58.5l48 218q15 70 65 88q-29 15 -29 54q0 18 4 34l45 205q2 12 2 21 q0 26 -16.5 42.5t-41.5 16.5h-55z" />
<glyph unicode="~" horiz-adv-x="503" d="M513 667l55 -6q-55 -238 -179 -238q-38 0 -59.5 19.5t-27.5 47.5t-10.5 56t-15.5 47.5t-34 19.5q-36 0 -67.5 -51.5t-52.5 -139.5l-54 7q52 237 178 237q38 0 59.5 -19.5t27.5 -48t10 -56.5t15 -47.5t34 -19.5q37 0 69 52.5t52 139.5z" />
<glyph unicode="&#xa1;" horiz-adv-x="230" d="M95 296h62l-90 -480h-94zM162 493q21 0 35.5 -14.5t14.5 -35.5q0 -25 -17.5 -42.5t-42.5 -17.5q-21 0 -35.5 15t-14.5 36q0 25 17.5 42t42.5 17z" />
<glyph unicode="&#xa2;" horiz-adv-x="496" d="M262 -12h-9l-19 -88h-59l21 96q-72 18 -114 72t-42 136q0 118 77.5 203.5t189.5 87.5l16 70h59l-17 -75q86 -16 128 -85l-57 -43q-27 47 -86 62l-82 -369h1q74 0 123 58l42 -51q-72 -74 -172 -74zM118 205q0 -55 25 -91t68 -50l81 362q-79 -9 -126.5 -72.5t-47.5 -148.5z " />
<glyph unicode="&#xa3;" horiz-adv-x="518" d="M25 268l11 54h116q-4 8 -17.5 30t-20 34t-12.5 33.5t-6 42.5q0 86 71.5 150.5t171.5 64.5q73 0 131.5 -32.5t74.5 -86.5l-75 -33q-9 36 -45 59t-83 23q-64 0 -110 -42t-46 -110q0 -26 8 -48t23.5 -47.5t20.5 -37.5h147l-12 -54h-121v-8q0 -49 -33.5 -94.5t-75.5 -71.5 q21 8 47 8q33 0 82 -20.5t77 -20.5q50 0 92 40l20 -67q-52 -47 -117 -47q-46 0 -108 23t-101 23q-48 0 -115 -40l-16 63q72 29 121 82t49 107q0 7 -2 23h-147z" />
<glyph unicode="&#xa4;" horiz-adv-x="522" d="M461 136l-34 -27l-37 49q-61 -44 -132 -44q-83 0 -145 59l-79 -66l-23 31l77 63q-31 56 -31 108q0 95 80 173l-37 49l32 26l39 -48q60 43 133 43q81 0 143 -57l78 64l25 -30l-78 -64q31 -51 31 -108q0 -91 -80 -173zM454 351q0 68 -43.5 110.5t-111.5 42.5 q-77 0 -135 -56.5t-58 -132.5q0 -68 43.5 -110.5t111.5 -42.5q77 0 135 56.5t58 132.5z" />
<glyph unicode="&#xa5;" horiz-adv-x="626" d="M304 0h-83l27 122h-253l12 53h252l24 107h-253l12 52h217l-154 333h91l139 -310l275 310h103l-300 -333h211l-11 -52h-247l-24 -107h247l-12 -53h-246z" />
<glyph unicode="&#xa6;" horiz-adv-x="211" d="M153 -20h-55v316h55v-316zM153 371h-55v316h55v-316z" />
<glyph unicode="&#xa7;" horiz-adv-x="468" d="M436 322q0 -48 -32 -87t-92 -56q69 -38 69 -103q0 -64 -51.5 -110.5t-135.5 -46.5q-140 0 -215 81l48 46q25 -33 69.5 -52t96.5 -19q49 0 80.5 26t31.5 64q0 27 -26 46.5t-62.5 33t-73.5 29t-63 43.5t-26 68q0 50 38 87.5t107 49.5q-90 37 -90 110q0 59 49 102t131 43 q131 0 195 -75l-44 -41q-47 60 -148 60q-48 0 -78.5 -23t-30.5 -57q0 -27 26 -46t63.5 -32t74.5 -28t63 -43.5t26 -69.5zM359 306q0 33 -25 53t-69 35q-67 -9 -101 -35t-34 -60t28.5 -53.5t93.5 -41.5q55 15 81 43t26 59z" />
<glyph unicode="&#xa8;" horiz-adv-x="272" d="M365 609q0 -20 -15.5 -35.5t-36.5 -15.5q-17 0 -29 12t-12 29q0 20 15.5 35.5t36.5 15.5q17 0 29 -12t12 -29zM159 609q0 -20 -16 -35.5t-36 -15.5q-17 0 -29 12t-12 29q0 20 15.5 35.5t36.5 15.5q17 0 29 -12t12 -29z" />
<glyph unicode="&#xa9;" horiz-adv-x="778" d="M754 334q0 -143 -101.5 -244t-244.5 -101q-142 0 -243 101t-101 244t100.5 244t243.5 101t244.5 -101t101.5 -244zM723 334q0 130 -92.5 222t-222.5 92q-129 0 -221 -92t-92 -222q0 -129 92 -221.5t221 -92.5q130 0 222.5 92.5t92.5 221.5zM505 201l20 -28 q-62 -52 -135 -52q-88 0 -140 53t-52 133q0 100 72 170.5t164 70.5q107 0 156 -80l-31 -22q-37 69 -126 69q-75 0 -136.5 -60t-61.5 -147q0 -65 43 -109.5t112 -44.5q68 0 115 47z" />
<glyph unicode="&#xaa;" horiz-adv-x="410" d="M268 602q-50 0 -85.5 -43t-35.5 -101q0 -45 23.5 -69t63.5 -24q53 0 96 49l32 143q-13 20 -38.5 32.5t-55.5 12.5zM380 640h57l-69 -314h-58l10 46q-45 -54 -107 -54q-54 0 -90 35t-36 99q0 80 49 138t121 58q78 0 113 -54z" />
<glyph unicode="&#xab;" horiz-adv-x="439" d="M220 63h-71l-120 180l200 177h79l-204 -182zM364 63h-71l-120 180l200 177h79l-204 -182z" />
<glyph unicode="&#xac;" horiz-adv-x="504" d="M517 457l-55 -246h-55l43 193h-386l12 53h441z" />
<glyph unicode="&#xad;" horiz-adv-x="300" d="M262 209h-240l14 66h240z" />
<glyph unicode="&#xae;" horiz-adv-x="494" d="M508 465q0 -88 -62.5 -150t-150.5 -62t-149.5 62t-61.5 150t62 150t150 62t150 -61.5t62 -150.5zM479 465q0 77 -54 130t-130 53q-77 0 -129.5 -53t-52.5 -130q0 -75 53 -129t129 -54t130 54t54 129zM367 343h-38l-42 96h-46l-21 -96h-32l53 243h92q30 0 50 -17.5 t20 -46.5q0 -34 -25.5 -58t-54.5 -24zM369 519q0 18 -11.5 28.5t-29.5 10.5h-61l-20 -90h68q23 0 38.5 14.5t15.5 36.5z" />
<glyph unicode="&#xaf;" horiz-adv-x="363" d="M439 591h-362l11 48h362z" />
<glyph unicode="&#x203e;" horiz-adv-x="363" d="M439 591h-362l11 48h362z" />
<glyph unicode="&#xb0;" horiz-adv-x="290" d="M336 555q0 -51 -36 -86.5t-87 -35.5q-50 0 -85.5 35.5t-35.5 86.5q0 50 35.5 86t85.5 36q51 0 87 -36t36 -86zM288 555q0 30 -22 52t-53 22q-30 0 -51.5 -22t-21.5 -52q0 -31 21 -52t51 -21q31 0 53.5 21.5t22.5 51.5z" />
<glyph unicode="&#xb1;" horiz-adv-x="499" d="M487 324h-192l-47 -213h-57l47 213h-192l12 52h192l45 207h58l-46 -207h192zM416 0h-441l11 53h441z" />
<glyph unicode="&#xb2;" horiz-adv-x="388" d="M381 421h-292l11 49q156 94 219 144t63 101q0 30 -24.5 46.5t-60.5 16.5q-69 0 -112 -46l-28 39q56 56 142 56q59 0 101.5 -27.5t42.5 -81.5q0 -60 -63.5 -116t-189.5 -132h201z" />
<glyph unicode="&#xb3;" horiz-adv-x="388" d="M407 535q0 -48 -40 -84.5t-107 -36.5q-55 0 -97 19t-63 54l40 35q39 -59 118 -59q41 0 65 23t24 57q0 26 -27.5 42.5t-72.5 16.5q-23 0 -30 -1l11 50q28 -2 61 -2q42 0 67 18t25 50q0 28 -27.5 44.5t-65.5 16.5q-58 0 -108 -43l-23 39q58 53 135 53q65 0 107.5 -26.5 t42.5 -75.5q0 -44 -31 -72t-81 -32q32 -6 54.5 -29t22.5 -57z" />
<glyph unicode="&#xb4;" horiz-adv-x="226" d="M327 700l-201 -144h-59l180 144h80z" />
<glyph unicode="&#xb5;" horiz-adv-x="551" d="M55 -184h-75l148 667h75l-75 -337q-1 -11 -1 -20q0 -35 17 -52q23 -21 72 -21q41 0 85 22t74 53l79 355h75l-107 -483h-75l15 68q-38 -34 -88.5 -57t-101.5 -23q-45 0 -76 14z" />
<glyph unicode="&#x3bc;" horiz-adv-x="551" d="M55 -184h-75l148 667h75l-75 -337q-1 -11 -1 -20q0 -35 17 -52q23 -21 72 -21q41 0 85 22t74 53l79 355h75l-107 -483h-75l15 68q-38 -34 -88.5 -57t-101.5 -23q-45 0 -76 14z" />
<glyph unicode="&#xb6;" horiz-adv-x="449" d="M301 -100h-45l161 722h-89l-161 -722h-45l94 423q-57 0 -97 44.5t-40 111.5q0 73 56.5 130.5t137.5 57.5h198z" />
<glyph unicode="&#xb7;" horiz-adv-x="231" d="M110 190q-21 0 -35.5 14.5t-14.5 35.5q0 25 17.5 42.5t42.5 17.5q21 0 35.5 -15t14.5 -36q0 -25 -17.5 -42t-42.5 -17z" />
<glyph unicode="&#x2219;" horiz-adv-x="231" d="M110 190q-21 0 -35.5 14.5t-14.5 35.5q0 25 17.5 42.5t42.5 17.5q21 0 35.5 -15t14.5 -36q0 -25 -17.5 -42t-42.5 -17z" />
<glyph unicode="&#xb8;" horiz-adv-x="205" d="M19 -191q-68 0 -108 38l27 36q33 -35 83 -35q29 0 45 13t16 34q0 30 -36 30q-21 0 -36 -17l-29 19l50 84h45l-40 -66q12 11 33 11q26 0 42 -15.5t16 -42.5q0 -40 -30 -64.5t-78 -24.5z" />
<glyph unicode="&#xb9;" horiz-adv-x="235" d="M214 421h-60l69 318l-78 -66l-29 38l133 110h53z" />
<glyph unicode="&#xba;" horiz-adv-x="405" d="M239 318q-68 0 -109 39.5t-41 103.5q0 77 53.5 132t128.5 55q68 0 109 -39.5t41 -103.5q0 -77 -53 -132t-129 -55zM240 366q54 0 88 42t34 98q0 42 -25 67.5t-67 25.5q-54 0 -87.5 -41.5t-33.5 -98.5q0 -41 25 -67t66 -26z" />
<glyph unicode="&#xbb;" horiz-adv-x="439" d="M77 420h71l120 -180l-200 -177h-79l204 182zM221 420h71l120 -180l-200 -177h-79l204 182z" />
<glyph unicode="&#xbc;" horiz-adv-x="770" d="M683 667l-574 -667h-54l573 667h55zM701 100h-57l-22 -100h-60l22 100h-196l9 45l230 255h83l-56 -251h57zM594 149l44 194l-179 -194h135zM180 267h-60l69 318l-78 -66l-29 38l133 110h53z" />
<glyph unicode="&#xbd;" horiz-adv-x="807" d="M683 667l-574 -667h-54l573 667h55zM707 0h-292l11 49q156 94 219 144t63 101q0 30 -24.5 46.5t-60.5 16.5q-69 0 -112 -46l-28 39q56 56 142 56q59 0 101.5 -27.5t42.5 -81.5q0 -60 -63.5 -116t-189.5 -132h201zM180 267h-60l69 318l-78 -66l-29 38l133 110h53z" />
<glyph unicode="&#xbe;" horiz-adv-x="878" d="M791 667l-574 -667h-54l573 667h55zM810 100h-57l-22 -100h-60l22 100h-196l9 45l230 255h83l-56 -251h57zM703 149l44 194l-179 -194h135zM373 381q0 -48 -40 -84.5t-107 -36.5q-55 0 -97 19t-63 54l40 35q39 -59 118 -59q41 0 65 23t24 57q0 26 -27.5 42.5t-72.5 16.5 q-23 0 -30 -1l11 50q28 -2 61 -2q42 0 67 18t25 50q0 28 -27.5 44.5t-65.5 16.5q-58 0 -108 -43l-23 39q58 53 135 53q65 0 107.5 -26.5t42.5 -75.5q0 -44 -31 -72t-81 -32q32 -6 54.5 -29t22.5 -57z" />
<glyph unicode="&#xbf;" horiz-adv-x="394" d="M204 271l66 27q24 -33 24 -71q0 -40 -24.5 -70t-59.5 -49l-70 -37q-35 -18 -59.5 -44t-24.5 -61q0 -39 32.5 -63t89.5 -24q87 0 154 65l37 -56q-86 -82 -201 -82q-88 0 -144.5 40.5t-56.5 105.5q0 42 19 75t47 52t61 38t61 33t47 35t19 47q0 22 -17 39zM286 493 q21 0 35.5 -15t14.5 -36q0 -24 -18 -41.5t-42 -17.5q-22 0 -36.5 15t-14.5 36q0 25 18 42t43 17z" />
<glyph unicode="&#xc0;" horiz-adv-x="658" d="M503 728h-57l-137 144h78zM595 0h-90l-27 149h-332l-92 -149h-99l416 667h103zM470 222l-62 360l-221 -360h283z" />
<glyph unicode="&#xc1;" horiz-adv-x="658" d="M629 872l-201 -144h-59l180 144h80zM595 0h-90l-27 149h-332l-92 -149h-99l416 667h103zM470 222l-62 360l-221 -360h283z" />
<glyph unicode="&#xc2;" horiz-adv-x="658" d="M570 728h-49l-60 106l-103 -106h-53l127 144h72zM595 0h-90l-27 149h-332l-92 -149h-99l416 667h103zM470 222l-62 360l-221 -360h283z" />
<glyph unicode="&#xc3;" horiz-adv-x="658" d="M507 726q-25 0 -42 14.5t-24.5 31.5t-20.5 31.5t-31 14.5q-43 0 -62 -86h-46q27 134 114 134q25 0 42 -14.5t24.5 -31.5t21 -31.5t31.5 -14.5q42 0 62 86h46q-29 -134 -115 -134zM595 0h-90l-27 149h-332l-92 -149h-99l416 667h103zM470 222l-62 360l-221 -360h283z" />
<glyph unicode="&#xc4;" horiz-adv-x="658" d="M597 778q0 -20 -15.5 -35.5t-36.5 -15.5q-17 0 -29 12t-12 29q0 20 15.5 35.5t36.5 15.5q17 0 29 -12t12 -29zM391 778q0 -20 -16 -35.5t-36 -15.5q-17 0 -29 12t-12 29q0 20 15.5 35.5t36.5 15.5q17 0 29 -12t12 -29zM595 0h-90l-27 149h-332l-92 -149h-99l416 667h103z M470 222l-62 360l-221 -360h283z" />
<glyph unicode="&#xc5;" horiz-adv-x="658" d="M440 692q-39 0 -64 25t-25 64q0 44 32 76t76 32q40 0 64.5 -24.5t24.5 -64.5q0 -44 -32 -76t-76 -32zM443 732q26 0 45.5 19t19.5 45q0 24 -14 38.5t-37 14.5q-26 0 -46 -19t-20 -45q0 -23 14.5 -38t37.5 -15zM595 0h-90l-27 149h-332l-92 -149h-99l416 667h103zM470 222 l-62 360l-221 -360h283z" />
<glyph unicode="&#xc6;" horiz-adv-x="948" d="M839 0h-437l32 149h-258l-124 -149h-99l563 667h470l-16 -74h-354l-48 -215h348l-17 -74h-347l-51 -230h354zM451 222l78 354l-297 -354h219z" />
<glyph unicode="&#xc7;" horiz-adv-x="676" d="M368 -12q-13 0 -19 1l-26 -44q12 11 33 11q26 0 42 -15.5t16 -42.5q0 -40 -30 -64.5t-78 -24.5q-68 0 -108 38l27 36q33 -35 83 -35q29 0 45 13t16 34q0 30 -36 30q-21 0 -36 -17l-29 19l39 66q-111 18 -179 95t-68 192q0 88 31.5 163.5t83.5 126.5t120 79.5t140 28.5 q97 0 167 -42t106 -115l-80 -31q-28 57 -80 85.5t-117 28.5q-113 0 -198 -90t-85 -230q0 -99 61 -160.5t164 -61.5q99 0 179 77l62 -47q-100 -104 -246 -104z" />
<glyph unicode="&#xc8;" horiz-adv-x="569" d="M470 728h-57l-137 144h78zM461 0h-437l147 667h437l-16 -74h-354l-48 -215h348l-17 -74h-347l-51 -230h354z" />
<glyph unicode="&#xc9;" horiz-adv-x="569" d="M595 872l-201 -144h-59l180 144h80zM461 0h-437l147 667h437l-16 -74h-354l-48 -215h348l-17 -74h-347l-51 -230h354z" />
<glyph unicode="&#xca;" horiz-adv-x="569" d="M535 728h-49l-60 106l-103 -106h-53l127 144h72zM461 0h-437l147 667h437l-16 -74h-354l-48 -215h348l-17 -74h-347l-51 -230h354z" />
<glyph unicode="&#xcb;" horiz-adv-x="569" d="M563 778q0 -20 -15.5 -35.5t-36.5 -15.5q-17 0 -29 12t-12 29q0 20 15.5 35.5t36.5 15.5q17 0 29 -12t12 -29zM357 778q0 -20 -16 -35.5t-36 -15.5q-17 0 -29 12t-12 29q0 20 15.5 35.5t36.5 15.5q17 0 29 -12t12 -29zM461 0h-437l147 667h437l-16 -74h-354l-48 -215h348 l-17 -74h-347l-51 -230h354z" />
<glyph unicode="&#xcc;" horiz-adv-x="239" d="M292 728h-57l-137 144h78zM107 0h-83l147 667h83z" />
<glyph unicode="&#xcd;" horiz-adv-x="239" d="M420 872l-201 -144h-59l180 144h80zM107 0h-83l147 667h83z" />
<glyph unicode="&#xce;" horiz-adv-x="239" d="M359 728h-49l-60 106l-103 -106h-53l127 144h72zM107 0h-83l147 667h83z" />
<glyph unicode="&#xcf;" horiz-adv-x="239" d="M386 778q0 -20 -15.5 -35.5t-36.5 -15.5q-17 0 -29 12t-12 29q0 20 15.5 35.5t36.5 15.5q17 0 29 -12t12 -29zM180 778q0 -20 -16 -35.5t-36 -15.5q-17 0 -29 12t-12 29q0 20 15.5 35.5t36.5 15.5q17 0 29 -12t12 -29zM107 0h-83l147 667h83z" />
<glyph unicode="&#xd0;" horiz-adv-x="728" d="M279 0h-227l66 300h-96l16 68h95l66 299h223q114 0 195.5 -81t81.5 -204q0 -70 -25.5 -136.5t-75 -122t-132.5 -89.5t-187 -34zM370 300h-169l-50 -226h142q143 0 231 88.5t88 215.5q0 93 -58.5 154t-147.5 61h-140l-50 -225h169z" />
<glyph unicode="&#xd1;" horiz-adv-x="708" d="M530 726q-25 0 -42 14.5t-24.5 31.5t-20.5 31.5t-31 14.5q-43 0 -62 -86h-46q27 134 114 134q25 0 42 -14.5t24.5 -31.5t21 -31.5t31.5 -14.5q42 0 62 86h46q-29 -134 -115 -134zM576 0h-80l-270 537l-119 -537h-83l147 667h85l267 -526l117 526h83z" />
<glyph unicode="&#xd2;" horiz-adv-x="765" d="M559 728h-57l-137 144h78zM368 -12q-133 0 -220.5 78.5t-87.5 213.5q0 167 109 282.5t266 115.5q133 0 220.5 -78t87.5 -213q0 -168 -109 -283.5t-266 -115.5zM373 62q116 0 199 91.5t83 228.5q0 104 -64 163t-161 59q-117 0 -199.5 -91.5t-82.5 -228.5q0 -104 64 -163 t161 -59z" />
<glyph unicode="&#xd3;" horiz-adv-x="765" d="M683 872l-201 -144h-59l180 144h80zM368 -12q-133 0 -220.5 78.5t-87.5 213.5q0 167 109 282.5t266 115.5q133 0 220.5 -78t87.5 -213q0 -168 -109 -283.5t-266 -115.5zM373 62q116 0 199 91.5t83 228.5q0 104 -64 163t-161 59q-117 0 -199.5 -91.5t-82.5 -228.5 q0 -104 64 -163t161 -59z" />
<glyph unicode="&#xd4;" horiz-adv-x="765" d="M624 728h-49l-60 106l-103 -106h-53l127 144h72zM368 -12q-133 0 -220.5 78.5t-87.5 213.5q0 167 109 282.5t266 115.5q133 0 220.5 -78t87.5 -213q0 -168 -109 -283.5t-266 -115.5zM373 62q116 0 199 91.5t83 228.5q0 104 -64 163t-161 59q-117 0 -199.5 -91.5 t-82.5 -228.5q0 -104 64 -163t161 -59z" />
<glyph unicode="&#xd5;" horiz-adv-x="765" d="M560 726q-25 0 -42 14.5t-24.5 31.5t-20.5 31.5t-31 14.5q-43 0 -62 -86h-46q27 134 114 134q25 0 42 -14.5t24.5 -31.5t21 -31.5t31.5 -14.5q42 0 62 86h46q-29 -134 -115 -134zM368 -12q-133 0 -220.5 78.5t-87.5 213.5q0 167 109 282.5t266 115.5q133 0 220.5 -78 t87.5 -213q0 -168 -109 -283.5t-266 -115.5zM373 62q116 0 199 91.5t83 228.5q0 104 -64 163t-161 59q-117 0 -199.5 -91.5t-82.5 -228.5q0 -104 64 -163t161 -59z" />
<glyph unicode="&#xd6;" horiz-adv-x="765" d="M649 778q0 -20 -15.5 -35.5t-36.5 -15.5q-17 0 -29 12t-12 29q0 20 15.5 35.5t36.5 15.5q17 0 29 -12t12 -29zM443 778q0 -20 -16 -35.5t-36 -15.5q-17 0 -29 12t-12 29q0 20 15.5 35.5t36.5 15.5q17 0 29 -12t12 -29zM368 -12q-133 0 -220.5 78.5t-87.5 213.5 q0 167 109 282.5t266 115.5q133 0 220.5 -78t87.5 -213q0 -168 -109 -283.5t-266 -115.5zM373 62q116 0 199 91.5t83 228.5q0 104 -64 163t-161 59q-117 0 -199.5 -91.5t-82.5 -228.5q0 -104 64 -163t161 -59z" />
<glyph unicode="&#xd7;" horiz-adv-x="499" d="M379 150l-115 147l-182 -150l-34 40l185 151l-115 146l42 34l114 -147l183 150l32 -40l-183 -150l114 -147z" />
<glyph unicode="&#xd8;" horiz-adv-x="765" d="M368 -12q-112 0 -194 57l-40 -45h-67l69 78q-76 79 -76 202q0 167 109 282.5t266 115.5q109 0 189 -54l39 43h67l-67 -75q80 -78 80 -205q0 -168 -109 -283.5t-266 -115.5zM373 62q116 0 199 91.5t83 228.5q0 89 -49 146l-377 -422q59 -44 144 -44zM148 284 q0 -85 45 -143l376 421q-57 42 -139 42q-117 0 -199.5 -91.5t-82.5 -228.5z" />
<glyph unicode="&#xd9;" horiz-adv-x="701" d="M525 728h-57l-137 144h78zM336 -12q-123 0 -191.5 60t-68.5 162q0 24 5 49l90 408h84l-90 -406q-5 -35 -5 -42q1 -70 47.5 -113.5t128.5 -43.5q88 0 136.5 50.5t69.5 148.5l90 406h84l-90 -407q-29 -132 -96.5 -202t-193.5 -70z" />
<glyph unicode="&#xda;" horiz-adv-x="701" d="M649 872l-201 -144h-59l180 144h80zM336 -12q-123 0 -191.5 60t-68.5 162q0 24 5 49l90 408h84l-90 -406q-5 -35 -5 -42q1 -70 47.5 -113.5t128.5 -43.5q88 0 136.5 50.5t69.5 148.5l90 406h84l-90 -407q-29 -132 -96.5 -202t-193.5 -70z" />
<glyph unicode="&#xdb;" horiz-adv-x="701" d="M595 728h-49l-60 106l-103 -106h-53l127 144h72zM336 -12q-123 0 -191.5 60t-68.5 162q0 24 5 49l90 408h84l-90 -406q-5 -35 -5 -42q1 -70 47.5 -113.5t128.5 -43.5q88 0 136.5 50.5t69.5 148.5l90 406h84l-90 -407q-29 -132 -96.5 -202t-193.5 -70z" />
<glyph unicode="&#xdc;" horiz-adv-x="701" d="M618 778q0 -20 -15.5 -35.5t-36.5 -15.5q-17 0 -29 12t-12 29q0 20 15.5 35.5t36.5 15.5q17 0 29 -12t12 -29zM412 778q0 -20 -16 -35.5t-36 -15.5q-17 0 -29 12t-12 29q0 20 15.5 35.5t36.5 15.5q17 0 29 -12t12 -29zM336 -12q-123 0 -191.5 60t-68.5 162q0 24 5 49 l90 408h84l-90 -406q-5 -35 -5 -42q1 -70 47.5 -113.5t128.5 -43.5q88 0 136.5 50.5t69.5 148.5l90 406h84l-90 -407q-29 -132 -96.5 -202t-193.5 -70z" />
<glyph unicode="&#xdd;" horiz-adv-x="626" d="M616 872l-201 -144h-59l180 144h80zM301 0h-83l62 282l-178 385h91l139 -310l275 310h103l-347 -385z" />
<glyph unicode="&#xde;" horiz-adv-x="587" d="M107 0h-83l147 667h83l-26 -119h175q74 0 124.5 -50.5t50.5 -122.5q0 -41 -14.5 -80t-43.5 -73t-80 -55t-117 -21h-184zM329 220q77 0 119.5 43.5t42.5 105.5q0 44 -33 74.5t-78 30.5h-169l-56 -254h174z" />
<glyph unicode="&#xdf;" horiz-adv-x="597" d="M559 145q0 -63 -50.5 -110t-136.5 -47q-69 0 -116.5 21t-87.5 69l47 47q58 -75 159 -75q50 0 80 26t30 60q0 25 -25 42.5t-60 29.5t-70.5 26t-60.5 40t-25 63q0 38 19.5 66t47.5 44t56.5 29t48 29.5t19.5 37.5q0 30 -30 48.5t-68 18.5q-48 0 -83 -30t-46 -81l-110 -499 h-75l110 499q18 79 71 128.5t135 49.5q68 0 121.5 -34t53.5 -87q0 -36 -20 -62.5t-49 -41.5t-58 -28t-49 -31.5t-20 -43.5q0 -23 25 -40t60.5 -29.5t71 -27t60.5 -42t25 -65.5z" />
<glyph unicode="&#xe0;" horiz-adv-x="575" d="M293 495q55 0 99.5 -23.5t68.5 -64.5l17 76h75l-107 -483h-75l15 69q-65 -81 -159 -81q-84 0 -135.5 53t-51.5 146q0 124 70.5 216t182.5 92zM303 428q-80 0 -132 -68t-52 -159q0 -67 37 -106.5t98 -39.5q43 0 82.5 23.5t65.5 58.5l47 213q-19 34 -57.5 56t-88.5 22z M406 556h-57l-137 144h78z" />
<glyph unicode="&#xe1;" horiz-adv-x="575" d="M293 495q55 0 99.5 -23.5t68.5 -64.5l17 76h75l-107 -483h-75l15 69q-65 -81 -159 -81q-84 0 -135.5 53t-51.5 146q0 124 70.5 216t182.5 92zM303 428q-80 0 -132 -68t-52 -159q0 -67 37 -106.5t98 -39.5q43 0 82.5 23.5t65.5 58.5l47 213q-19 34 -57.5 56t-88.5 22z M532 700l-201 -144h-59l180 144h80z" />
<glyph unicode="&#xe2;" horiz-adv-x="575" d="M293 495q55 0 99.5 -23.5t68.5 -64.5l17 76h75l-107 -483h-75l15 69q-65 -81 -159 -81q-84 0 -135.5 53t-51.5 146q0 124 70.5 216t182.5 92zM303 428q-80 0 -132 -68t-52 -159q0 -67 37 -106.5t98 -39.5q43 0 82.5 23.5t65.5 58.5l47 213q-19 34 -57.5 56t-88.5 22z M474 556h-49l-60 106l-103 -106h-53l127 144h72z" />
<glyph unicode="&#xe3;" horiz-adv-x="575" d="M293 495q55 0 99.5 -23.5t68.5 -64.5l17 76h75l-107 -483h-75l15 69q-65 -81 -159 -81q-84 0 -135.5 53t-51.5 146q0 124 70.5 216t182.5 92zM303 428q-80 0 -132 -68t-52 -159q0 -67 37 -106.5t98 -39.5q43 0 82.5 23.5t65.5 58.5l47 213q-19 34 -57.5 56t-88.5 22z M410 554q-25 0 -42 14.5t-24.5 31.5t-20.5 31.5t-31 14.5q-43 0 -62 -86h-46q27 134 114 134q25 0 42 -14.5t24.5 -31.5t21 -31.5t31.5 -14.5q42 0 62 86h46q-29 -134 -115 -134z" />
<glyph unicode="&#xe4;" horiz-adv-x="575" d="M293 495q55 0 99.5 -23.5t68.5 -64.5l17 76h75l-107 -483h-75l15 69q-65 -81 -159 -81q-84 0 -135.5 53t-51.5 146q0 124 70.5 216t182.5 92zM303 428q-80 0 -132 -68t-52 -159q0 -67 37 -106.5t98 -39.5q43 0 82.5 23.5t65.5 58.5l47 213q-19 34 -57.5 56t-88.5 22z M501 609q0 -20 -15.5 -35.5t-36.5 -15.5q-17 0 -29 12t-12 29q0 20 15.5 35.5t36.5 15.5q17 0 29 -12t12 -29zM295 609q0 -20 -16 -35.5t-36 -15.5q-17 0 -29 12t-12 29q0 20 15.5 35.5t36.5 15.5q17 0 29 -12t12 -29z" />
<glyph unicode="&#xe5;" horiz-adv-x="575" d="M293 495q55 0 99.5 -23.5t68.5 -64.5l17 76h75l-107 -483h-75l15 69q-65 -81 -159 -81q-84 0 -135.5 53t-51.5 146q0 124 70.5 216t182.5 92zM303 428q-80 0 -132 -68t-52 -159q0 -67 37 -106.5t98 -39.5q43 0 82.5 23.5t65.5 58.5l47 213q-19 34 -57.5 56t-88.5 22z M352 547q-39 0 -64 25t-25 64q0 44 32 76t76 32q40 0 64.5 -24.5t24.5 -64.5q0 -44 -32 -76t-76 -32zM355 587q26 0 45.5 19t19.5 45q0 24 -14 38.5t-37 14.5q-26 0 -46 -19t-20 -45q0 -23 14.5 -38t37.5 -15z" />
<glyph unicode="&#xe6;" horiz-adv-x="939" d="M662 -12q-76 0 -124.5 34.5t-66.5 92.5l-25 -115h-75l16 69q-65 -81 -160 -81q-84 0 -135.5 53t-51.5 146q0 80 30.5 149.5t89.5 114t134 44.5q113 0 168 -88l16 76h75l-18 -80q74 92 174 92q90 0 138.5 -56t48.5 -151q0 -40 -9 -71h-389q-1 -4 -1 -23q0 -60 42.5 -101 t121.5 -41q76 0 134 47l26 -54q-76 -57 -159 -57zM303 428q-80 0 -131.5 -68t-51.5 -159q0 -67 37 -106.5t97 -39.5q44 0 83.5 23.5t64.5 58.5l47 213q-18 34 -57 56t-89 22zM826 273q1 4 1 18q0 64 -36.5 103t-105.5 39q-65 0 -116 -47.5t-63 -112.5h320z" />
<glyph unicode="&#xe7;" horiz-adv-x="496" d="M208 -191q-68 0 -108 38l27 36q33 -35 83 -35q29 0 45 13t16 34q0 30 -36 30q-21 0 -36 -17l-29 19l39 66q-78 14 -123.5 69.5t-45.5 141.5q0 120 79.5 205.5t192.5 85.5q127 0 181 -90l-57 -43q-38 66 -122 66q-88 0 -142 -66t-54 -157q0 -72 42.5 -111t108.5 -39 q74 0 123 58l42 -51q-72 -74 -172 -74h-11l-26 -43q12 11 33 11q26 0 42 -15.5t16 -42.5q0 -40 -30 -64.5t-78 -24.5z" />
<glyph unicode="&#xe8;" horiz-adv-x="563" d="M276 -12q-109 0 -172.5 58.5t-63.5 155.5q0 121 79 207t193 86q95 0 151.5 -59t56.5 -152q0 -30 -8 -67h-393q-2 -8 -2 -23q0 -60 43 -102t121 -42q81 0 139 48l26 -53q-76 -57 -170 -57zM448 273h3q0 2 0.5 8.5t0.5 9.5q0 63 -38.5 102.5t-108.5 39.5q-65 0 -116 -47.5 t-63 -112.5h322zM421 556h-57l-137 144h78z" />
<glyph unicode="&#xe9;" horiz-adv-x="563" d="M276 -12q-109 0 -172.5 58.5t-63.5 155.5q0 121 79 207t193 86q95 0 151.5 -59t56.5 -152q0 -30 -8 -67h-393q-2 -8 -2 -23q0 -60 43 -102t121 -42q81 0 139 48l26 -53q-76 -57 -170 -57zM448 273h3q0 2 0.5 8.5t0.5 9.5q0 63 -38.5 102.5t-108.5 39.5q-65 0 -116 -47.5 t-63 -112.5h322zM547 700l-201 -144h-59l180 144h80z" />
<glyph unicode="&#xea;" horiz-adv-x="563" d="M276 -12q-109 0 -172.5 58.5t-63.5 155.5q0 121 79 207t193 86q95 0 151.5 -59t56.5 -152q0 -30 -8 -67h-393q-2 -8 -2 -23q0 -60 43 -102t121 -42q81 0 139 48l26 -53q-76 -57 -170 -57zM448 273h3q0 2 0.5 8.5t0.5 9.5q0 63 -38.5 102.5t-108.5 39.5q-65 0 -116 -47.5 t-63 -112.5h322zM488 556h-49l-60 106l-103 -106h-53l127 144h72z" />
<glyph unicode="&#xeb;" horiz-adv-x="563" d="M276 -12q-109 0 -172.5 58.5t-63.5 155.5q0 121 79 207t193 86q95 0 151.5 -59t56.5 -152q0 -30 -8 -67h-393q-2 -8 -2 -23q0 -60 43 -102t121 -42q81 0 139 48l26 -53q-76 -57 -170 -57zM448 273h3q0 2 0.5 8.5t0.5 9.5q0 63 -38.5 102.5t-108.5 39.5q-65 0 -116 -47.5 t-63 -112.5h322zM515 609q0 -20 -15.5 -35.5t-36.5 -15.5q-17 0 -29 12t-12 29q0 20 15.5 35.5t36.5 15.5q17 0 29 -12t12 -29zM309 609q0 -20 -16 -35.5t-36 -15.5q-17 0 -29 12t-12 29q0 20 15.5 35.5t36.5 15.5q17 0 29 -12t12 -29z" />
<glyph unicode="&#xec;" horiz-adv-x="225" d="M247 556h-57l-137 144h78zM96 0h-75l107 483h75z" />
<glyph unicode="&#xed;" horiz-adv-x="225" d="M374 700l-201 -144h-59l180 144h80zM96 0h-75l107 483h75z" />
<glyph unicode="&#xee;" horiz-adv-x="225" d="M315 556h-49l-60 106l-103 -106h-53l127 144h72zM96 0h-75l107 483h75z" />
<glyph unicode="&#xef;" horiz-adv-x="225" d="M342 609q0 -20 -15.5 -35.5t-36.5 -15.5q-17 0 -29 12t-12 29q0 20 15.5 35.5t36.5 15.5q17 0 29 -12t12 -29zM136 609q0 -20 -16 -35.5t-36 -15.5q-17 0 -29 12t-12 29q0 20 15.5 35.5t36.5 15.5q17 0 29 -12t12 -29zM96 0h-75l107 483h75z" />
<glyph unicode="&#xf0;" d="M178 511l-9 41l132 39q-21 19 -65 53l53 57q57 -44 97 -84l117 35l8 -41l-94 -28q116 -137 116 -280q0 -132 -76 -223.5t-193 -91.5q-100 0 -162.5 58t-62.5 148q0 119 73.5 202t176.5 83q53 0 98.5 -26.5t68.5 -79.5q-32 95 -120 185zM265 55q76 0 129.5 63t53.5 152 q0 57 -37.5 99.5t-110.5 42.5q-75 0 -128.5 -61t-53.5 -149q0 -66 39 -106.5t108 -40.5z" />
<glyph unicode="&#xf1;" horiz-adv-x="552" d="M425 0h-74l70 317q5 25 5 34q0 77 -100 77q-77 0 -149 -76l-78 -352h-75l107 483h75l-16 -70q84 82 171 82q65 0 104.5 -31t39.5 -88q0 -19 -6 -41zM416 554q-25 0 -42 14.5t-24.5 31.5t-20.5 31.5t-31 14.5q-43 0 -62 -86h-46q27 134 114 134q25 0 42 -14.5t24.5 -31.5 t21 -31.5t31.5 -14.5q42 0 62 86h46q-29 -134 -115 -134z" />
<glyph unicode="&#xf2;" d="M261 -12q-102 0 -161.5 59t-59.5 156q0 117 77.5 204.5t191.5 87.5q102 0 161.5 -59t59.5 -155q0 -118 -77.5 -205.5t-191.5 -87.5zM263 55q80 0 134 67.5t54 155.5q0 69 -38 109.5t-106 40.5q-80 0 -134 -67.5t-54 -155.5q0 -69 38 -109.5t106 -40.5zM421 556h-57 l-137 144h78z" />
<glyph unicode="&#xf3;" d="M261 -12q-102 0 -161.5 59t-59.5 156q0 117 77.5 204.5t191.5 87.5q102 0 161.5 -59t59.5 -155q0 -118 -77.5 -205.5t-191.5 -87.5zM263 55q80 0 134 67.5t54 155.5q0 69 -38 109.5t-106 40.5q-80 0 -134 -67.5t-54 -155.5q0 -69 38 -109.5t106 -40.5zM547 700l-201 -144 h-59l180 144h80z" />
<glyph unicode="&#xf4;" d="M261 -12q-102 0 -161.5 59t-59.5 156q0 117 77.5 204.5t191.5 87.5q102 0 161.5 -59t59.5 -155q0 -118 -77.5 -205.5t-191.5 -87.5zM263 55q80 0 134 67.5t54 155.5q0 69 -38 109.5t-106 40.5q-80 0 -134 -67.5t-54 -155.5q0 -69 38 -109.5t106 -40.5zM489 556h-49 l-60 106l-103 -106h-53l127 144h72z" />
<glyph unicode="&#xf5;" d="M261 -12q-102 0 -161.5 59t-59.5 156q0 117 77.5 204.5t191.5 87.5q102 0 161.5 -59t59.5 -155q0 -118 -77.5 -205.5t-191.5 -87.5zM263 55q80 0 134 67.5t54 155.5q0 69 -38 109.5t-106 40.5q-80 0 -134 -67.5t-54 -155.5q0 -69 38 -109.5t106 -40.5zM426 554 q-25 0 -42 14.5t-24.5 31.5t-20.5 31.5t-31 14.5q-43 0 -62 -86h-46q27 134 114 134q25 0 42 -14.5t24.5 -31.5t21 -31.5t31.5 -14.5q42 0 62 86h46q-29 -134 -115 -134z" />
<glyph unicode="&#xf6;" d="M261 -12q-102 0 -161.5 59t-59.5 156q0 117 77.5 204.5t191.5 87.5q102 0 161.5 -59t59.5 -155q0 -118 -77.5 -205.5t-191.5 -87.5zM263 55q80 0 134 67.5t54 155.5q0 69 -38 109.5t-106 40.5q-80 0 -134 -67.5t-54 -155.5q0 -69 38 -109.5t106 -40.5zM515 609 q0 -20 -15.5 -35.5t-36.5 -15.5q-17 0 -29 12t-12 29q0 20 15.5 35.5t36.5 15.5q17 0 29 -12t12 -29zM309 609q0 -20 -16 -35.5t-36 -15.5q-17 0 -29 12t-12 29q0 20 15.5 35.5t36.5 15.5q17 0 29 -12t12 -29z" />
<glyph unicode="&#xf7;" horiz-adv-x="511" d="M497 311h-453l11 52h453zM229 99q-17 0 -29.5 12.5t-12.5 29.5q0 20 15 34.5t35 14.5q18 0 30 -12.5t12 -29.5q0 -21 -14.5 -35t-35.5 -14zM313 480q-17 0 -29 12.5t-12 30.5q0 20 14.5 34.5t35.5 14.5q17 0 29.5 -12.5t12.5 -29.5q0 -21 -15 -35.5t-36 -14.5z" />
<glyph unicode="&#xf8;" d="M66 0h-58l71 70q-39 54 -39 133q0 117 77.5 204.5t191.5 87.5q91 0 151 -49l37 37h58l-68 -67q43 -55 43 -135q0 -118 -77.5 -205.5t-191.5 -87.5q-95 0 -155 52zM263 55q80 0 134 67.5t54 155.5q0 48 -20 83l-271 -269q37 -37 103 -37zM119 205q0 -45 17 -79l270 267 q-38 35 -99 35q-80 0 -134 -67.5t-54 -155.5z" />
<glyph unicode="&#xf9;" horiz-adv-x="551" d="M128 483h75l-70 -317q-5 -22 -5 -33q0 -78 100 -78q76 0 148 76l78 352h75l-107 -483h-75l16 70q-84 -82 -170 -82q-66 0 -105 31t-39 88q0 13 5 41zM413 556h-57l-137 144h78z" />
<glyph unicode="&#xfa;" horiz-adv-x="551" d="M128 483h75l-70 -317q-5 -22 -5 -33q0 -78 100 -78q76 0 148 76l78 352h75l-107 -483h-75l16 70q-84 -82 -170 -82q-66 0 -105 31t-39 88q0 13 5 41zM538 700l-201 -144h-59l180 144h80z" />
<glyph unicode="&#xfb;" horiz-adv-x="551" d="M128 483h75l-70 -317q-5 -22 -5 -33q0 -78 100 -78q76 0 148 76l78 352h75l-107 -483h-75l16 70q-84 -82 -170 -82q-66 0 -105 31t-39 88q0 13 5 41zM478 556h-49l-60 106l-103 -106h-53l127 144h72z" />
<glyph unicode="&#xfc;" horiz-adv-x="551" d="M128 483h75l-70 -317q-5 -22 -5 -33q0 -78 100 -78q76 0 148 76l78 352h75l-107 -483h-75l16 70q-84 -82 -170 -82q-66 0 -105 31t-39 88q0 13 5 41zM508 609q0 -20 -15.5 -35.5t-36.5 -15.5q-17 0 -29 12t-12 29q0 20 15.5 35.5t36.5 15.5q17 0 29 -12t12 -29zM302 609 q0 -20 -16 -35.5t-36 -15.5q-17 0 -29 12t-12 29q0 20 15.5 35.5t36.5 15.5q17 0 29 -12t12 -29z" />
<glyph unicode="&#xfd;" horiz-adv-x="490" d="M-46 -185l26 67q18 -8 48 -8q39 0 71 48l49 75l-92 486h79l72 -396l249 396h84l-372 -581q-61 -98 -150 -98q-37 0 -64 11zM507 700l-201 -144h-59l180 144h80z" />
<glyph unicode="&#xfe;" d="M281 -12q-55 0 -99.5 23.5t-68.5 64.5l-58 -260h-75l188 851h75l-55 -253q65 81 159 81q85 0 136 -53t51 -146q0 -124 -70.5 -216t-182.5 -92zM271 55q80 0 132 68t52 159q0 67 -37 106.5t-98 39.5q-43 0 -82.5 -23.5t-65.5 -58.5l-47 -213q19 -34 57.5 -56t88.5 -22z " />
<glyph unicode="&#xff;" horiz-adv-x="490" d="M-46 -185l26 67q18 -8 48 -8q39 0 71 48l49 75l-92 486h79l72 -396l249 396h84l-372 -581q-61 -98 -150 -98q-37 0 -64 11zM474 609q0 -20 -15.5 -35.5t-36.5 -15.5q-17 0 -29 12t-12 29q0 20 15.5 35.5t36.5 15.5q17 0 29 -12t12 -29zM268 609q0 -20 -16 -35.5 t-36 -15.5q-17 0 -29 12t-12 29q0 20 15.5 35.5t36.5 15.5q17 0 29 -12t12 -29z" />
<glyph unicode="&#x152;" horiz-adv-x="1105" d="M997 0h-437l21 102q-86 -114 -240 -114q-124 0 -202.5 82t-78.5 210q0 173 110.5 285t265.5 112q183 0 239 -154l32 144h437l-16 -74h-354l-48 -215h347l-16 -74h-348l-51 -230h355zM604 201l49 223q-14 85 -72 132t-145 47q-120 0 -204 -92t-84 -227q0 -101 60.5 -161.5 t157.5 -60.5q72 0 135.5 37t102.5 102z" />
<glyph unicode="&#x153;" horiz-adv-x="962" d="M912 217h-389q-1 -4 -1 -23q0 -61 42.5 -102.5t119.5 -41.5q78 0 136 48l26 -53q-70 -57 -167 -57q-85 0 -140.5 44t-66.5 94q-18 -28 -32.5 -45.5t-41 -42t-62 -37.5t-77.5 -13q-99 0 -159 57.5t-60 157.5q0 116 76.5 204t190.5 88q81 0 131.5 -44.5t60.5 -93.5 q89 138 215 138q91 0 149 -56.5t58 -154.5q0 -35 -9 -67zM531 273h320q2 8 2 18q0 61 -38 101.5t-107 40.5q-68 0 -118.5 -50.5t-58.5 -109.5zM447 278q0 75 -40.5 112.5t-101.5 37.5q-77 0 -131.5 -66t-54.5 -157q0 -69 37.5 -109.5t104.5 -40.5q78 0 132 66t54 157z" />
<glyph unicode="&#x178;" horiz-adv-x="626" d="M583 778q0 -20 -15.5 -35.5t-36.5 -15.5q-17 0 -29 12t-12 29q0 20 15.5 35.5t36.5 15.5q17 0 29 -12t12 -29zM377 778q0 -20 -16 -35.5t-36 -15.5q-17 0 -29 12t-12 29q0 20 15.5 35.5t36.5 15.5q17 0 29 -12t12 -29zM301 0h-83l62 282l-178 385h91l139 -310l275 310 h103l-347 -385z" />
<glyph unicode="&#x2c6;" horiz-adv-x="265" d="M334 556h-49l-60 106l-103 -106h-53l127 144h72z" />
<glyph unicode="&#x2dc;" horiz-adv-x="313" d="M296 554q-25 0 -42 14.5t-24.5 31.5t-20.5 31.5t-31 14.5q-43 0 -62 -86h-46q27 134 114 134q25 0 42 -14.5t24.5 -31.5t21 -31.5t31.5 -14.5q42 0 62 86h46q-29 -134 -115 -134z" />
<glyph unicode="&#x2000;" horiz-adv-x="444" />
<glyph unicode="&#x2001;" horiz-adv-x="889" />
<glyph unicode="&#x2002;" horiz-adv-x="444" />
<glyph unicode="&#x2003;" horiz-adv-x="889" />
<glyph unicode="&#x2004;" horiz-adv-x="296" />
<glyph unicode="&#x2005;" horiz-adv-x="222" />
<glyph unicode="&#x2006;" horiz-adv-x="148" />
<glyph unicode="&#x2007;" horiz-adv-x="148" />
<glyph unicode="&#x2008;" horiz-adv-x="111" />
<glyph unicode="&#x2009;" horiz-adv-x="177" />
<glyph unicode="&#x200a;" horiz-adv-x="49" />
<glyph unicode="&#x2010;" horiz-adv-x="300" d="M262 209h-240l14 66h240z" />
<glyph unicode="&#x2011;" horiz-adv-x="300" d="M262 209h-240l14 66h240z" />
<glyph unicode="&#x2013;" horiz-adv-x="593" d="M555 209h-533l14 66h533z" />
<glyph unicode="&#x2014;" horiz-adv-x="833" d="M795 209h-773l14 66h773z" />
<glyph unicode="&#x2018;" horiz-adv-x="230" d="M109 515q0 46 33.5 92t81.5 70l31 -32q-28 -14 -52 -37.5t-32 -46.5h8q18 0 30.5 -12.5t12.5 -32.5q0 -24 -18 -41.5t-42 -17.5q-23 0 -38 15.5t-15 42.5z" />
<glyph unicode="&#x2019;" horiz-adv-x="230" d="M256 619q0 -46 -33.5 -92t-81.5 -71l-31 33q28 14 52 37.5t32 46.5h-8q-18 0 -30 12.5t-12 32.5q0 24 17.5 41.5t41.5 17.5q23 0 38 -15.5t15 -42.5z" />
<glyph unicode="&#x201a;" horiz-adv-x="230" d="M128 42q0 -46 -33.5 -92t-81.5 -71l-31 33q67 34 84 84h-8q-18 0 -30.5 12.5t-12.5 32.5q0 24 18 41.5t42 17.5q23 0 38 -15.5t15 -42.5z" />
<glyph unicode="&#x201c;" horiz-adv-x="390" d="M275 515q0 46 34 92t82 70l31 -32q-28 -14 -52 -37.5t-32 -46.5h8q18 0 30 -12.5t12 -32.5q0 -24 -18 -41.5t-42 -17.5q-22 0 -37.5 15.5t-15.5 42.5zM116 515q0 46 34 92t82 70l30 -32q-28 -14 -52 -37.5t-32 -46.5h8q18 0 30.5 -12.5t12.5 -32.5q0 -24 -18 -41.5 t-42 -17.5q-23 0 -38 15.5t-15 42.5z" />
<glyph unicode="&#x201d;" horiz-adv-x="390" d="M256 619q0 -46 -33.5 -92t-81.5 -71l-31 33q28 14 52 37.5t32 46.5h-8q-18 0 -30 12.5t-12 32.5q0 24 17.5 41.5t41.5 17.5q23 0 38 -15.5t15 -42.5zM416 619q0 -46 -34 -92t-82 -71l-30 33q28 14 51.5 37.5t32.5 46.5h-8q-18 0 -30.5 12.5t-12.5 32.5q0 24 18 41.5 t42 17.5q23 0 38 -15.5t15 -42.5z" />
<glyph unicode="&#x201e;" horiz-adv-x="390" d="M128 42q0 -46 -33.5 -92t-81.5 -71l-31 33q67 34 84 84h-8q-18 0 -30.5 12.5t-12.5 32.5q0 24 18 41.5t42 17.5q23 0 38 -15.5t15 -42.5zM288 42q0 -46 -34 -92t-82 -71l-30 33q28 14 51.5 37t31.5 47h-8q-17 0 -29.5 12.5t-12.5 32.5q0 24 18 41.5t42 17.5 q23 0 38 -15.5t15 -42.5z" />
<glyph unicode="&#x2022;" horiz-adv-x="358" d="M288 253q0 -48 -36.5 -83t-84.5 -35q-41 0 -69 28t-28 69q0 48 36.5 83t84.5 35q41 0 69 -28t28 -69z" />
<glyph unicode="&#x2026;" horiz-adv-x="691" d="M66 -10q-21 0 -35.5 14.5t-14.5 36.5q0 24 17.5 41.5t42.5 17.5q21 0 35.5 -15t14.5 -36q0 -25 -17.5 -42t-42.5 -17zM296 -10q-21 0 -35.5 14.5t-14.5 36.5q0 24 17.5 41.5t42.5 17.5q21 0 35.5 -15t14.5 -36q0 -25 -17.5 -42t-42.5 -17zM526 -10q-21 0 -35.5 14.5 t-14.5 36.5q0 24 17.5 41.5t42.5 17.5q22 0 36.5 -15t14.5 -36q0 -25 -18 -42t-43 -17z" />
<glyph unicode="&#x202f;" horiz-adv-x="177" />
<glyph unicode="&#x2039;" horiz-adv-x="295" d="M220 63h-71l-120 180l200 177h79l-204 -182z" />
<glyph unicode="&#x203a;" horiz-adv-x="295" d="M77 420h71l120 -180l-200 -177h-79l204 182z" />
<glyph unicode="&#x205f;" horiz-adv-x="222" />
<glyph unicode="&#x20ac;" horiz-adv-x="695" d="M392 -12q-123 0 -207 67.5t-99 181.5h-57l12 52h43q2 49 10 90h-34l12 53h38q43 113 139 179.5t210 66.5q97 0 167 -42t106 -115l-80 -31q-28 57 -80 85.5t-117 28.5q-78 0 -147 -46.5t-105 -125.5h314l-12 -53h-321q-12 -42 -12 -90h313l-12 -52h-297 q14 -80 72.5 -127.5t148.5 -47.5q99 0 179 77l62 -47q-100 -104 -246 -104z" />
<glyph unicode="&#x2122;" horiz-adv-x="454" d="M464 447h-28l40 182l-115 -182h-8l-35 182l-40 -182h-28l48 220h43l29 -160l99 160h43zM257 641h-62l-43 -194h-28l43 194h-62l5 26h152z" />
<glyph unicode="&#x2153;" horiz-adv-x="807" d="M683 667l-574 -667h-54l573 667h55zM733 114q0 -48 -40 -84.5t-107 -36.5q-55 0 -97 19t-63 54l40 35q39 -59 118 -59q41 0 65 23t24 57q0 26 -27.5 42.5t-72.5 16.5q-23 0 -30 -1l11 50q28 -2 61 -2q42 0 67 18t25 50q0 28 -27.5 44.5t-65.5 16.5q-58 0 -108 -43l-23 39 q58 53 135 53q65 0 107.5 -26.5t42.5 -75.5q0 -44 -31 -72t-81 -32q32 -6 54.5 -29t22.5 -57zM180 267h-60l69 318l-78 -66l-29 38l133 110h53z" />
<glyph unicode="&#x2154;" horiz-adv-x="915" d="M791 667l-574 -667h-54l573 667h55zM841 114q0 -48 -40 -84.5t-107 -36.5q-55 0 -97 19t-63 54l40 35q39 -59 118 -59q41 0 65 23t24 57q0 26 -27.5 42.5t-72.5 16.5q-23 0 -30 -1l11 50q28 -2 61 -2q42 0 67 18t25 50q0 28 -27.5 44.5t-65.5 16.5q-58 0 -108 -43l-23 39 q58 53 135 53q65 0 107.5 -26.5t42.5 -75.5q0 -44 -31 -72t-81 -32q32 -6 54.5 -29t22.5 -57zM347 267h-292l11 49q156 94 219 144t63 101q0 30 -24.5 46.5t-60.5 16.5q-69 0 -112 -46l-28 39q56 56 142 56q59 0 101.5 -27.5t42.5 -81.5q0 -60 -63.5 -116t-189.5 -132h201z " />
<glyph unicode="&#x215b;" horiz-adv-x="807" d="M683 667l-574 -667h-54l573 667h55zM735 105q0 -48 -42 -80t-109 -32t-112.5 28t-45.5 78q0 42 35.5 74t90.5 38q-75 27 -75 86q0 52 43 80.5t101 28.5q59 0 105 -26t46 -73q0 -41 -29.5 -70.5t-87.5 -36.5q33 -12 56.5 -36.5t23.5 -58.5zM711 296q0 30 -25 46t-63 16 q-37 0 -62.5 -18.5t-25.5 -48.5q0 -27 25.5 -44t48.5 -22q39 3 70.5 20t31.5 51zM676 110q0 25 -21.5 45t-54.5 29q-51 -4 -82 -25t-31 -54q0 -28 28 -46.5t65 -18.5q40 0 68 20t28 50zM180 267h-60l69 318l-78 -66l-29 38l133 110h53z" />
<glyph unicode="&#x215c;" horiz-adv-x="915" d="M791 667l-574 -667h-54l573 667h55zM843 105q0 -48 -42 -80t-109 -32t-112.5 28t-45.5 78q0 42 35.5 74t90.5 38q-75 27 -75 86q0 52 43 80.5t101 28.5q59 0 105 -26t46 -73q0 -41 -29.5 -70.5t-87.5 -36.5q33 -12 56.5 -36.5t23.5 -58.5zM819 296q0 30 -25 46t-63 16 q-37 0 -62.5 -18.5t-25.5 -48.5q0 -27 25.5 -44t48.5 -22q39 3 70.5 20t31.5 51zM784 110q0 25 -21.5 45t-54.5 29q-51 -4 -82 -25t-31 -54q0 -28 28 -46.5t65 -18.5q40 0 68 20t28 50zM373 381q0 -48 -40 -84.5t-107 -36.5q-55 0 -97 19t-63 54l40 35q39 -59 118 -59 q41 0 65 23t24 57q0 26 -27.5 42.5t-72.5 16.5q-23 0 -30 -1l11 50q28 -2 61 -2q42 0 67 18t25 50q0 28 -27.5 44.5t-65.5 16.5q-58 0 -108 -43l-23 39q58 53 135 53q65 0 107.5 -26.5t42.5 -75.5q0 -44 -31 -72t-81 -32q32 -6 54.5 -29t22.5 -57z" />
<glyph unicode="&#x215d;" horiz-adv-x="912" d="M788 667l-574 -667h-54l573 667h55zM840 105q0 -48 -42 -80t-109 -32t-112.5 28t-45.5 78q0 42 35.5 74t90.5 38q-75 27 -75 86q0 52 43 80.5t101 28.5q59 0 105 -26t46 -73q0 -41 -29.5 -70.5t-87.5 -36.5q33 -12 56.5 -36.5t23.5 -58.5zM816 296q0 30 -25 46t-63 16 q-37 0 -62.5 -18.5t-25.5 -48.5q0 -27 25.5 -44t48.5 -22q39 3 70.5 20t31.5 51zM781 110q0 25 -21.5 45t-54.5 29q-51 -4 -82 -25t-31 -54q0 -28 28 -46.5t65 -18.5q40 0 68 20t28 50zM379 412q0 -65 -45 -108.5t-115 -43.5q-52 0 -92.5 19t-60.5 53l43 36q35 -59 109 -59 q44 0 72 27t28 67q0 34 -25 52.5t-62 18.5q-50 0 -90 -37l-40 16l48 214h261l-11 -49h-201l-28 -130q37 32 88 32q50 0 85.5 -29.5t35.5 -78.5z" />
<glyph unicode="&#x215e;" horiz-adv-x="830" d="M706 667l-574 -667h-54l573 667h55zM758 105q0 -48 -42 -80t-109 -32t-112.5 28t-45.5 78q0 42 35.5 74t90.5 38q-75 27 -75 86q0 52 43 80.5t101 28.5q59 0 105 -26t46 -73q0 -41 -29.5 -70.5t-87.5 -36.5q33 -12 56.5 -36.5t23.5 -58.5zM734 296q0 30 -25 46t-63 16 q-37 0 -62.5 -18.5t-25.5 -48.5q0 -27 25.5 -44t48.5 -22q39 3 70.5 20t31.5 51zM699 110q0 25 -21.5 45t-54.5 29q-51 -4 -82 -25t-31 -54q0 -28 28 -46.5t65 -18.5q40 0 68 20t28 50zM407 626l-245 -359h-68l243 351h-223l12 49h290z" />
<glyph horiz-adv-x="269" d="M151 -12q-51 0 -81 21.5t-30 60.5q0 18 4 34l124 563h75l-121 -548q-3 -12 -3 -23q0 -41 50 -41q26 0 46 16l8 -60q-29 -23 -72 -23z" />
<glyph horiz-adv-x="528" d="M403 0h-75l12 52q-66 -64 -150 -64q-68 0 -115.5 36.5t-47.5 103.5q0 82 52.5 130.5t128.5 48.5q109 0 172 -72l18 81q3 12 3 29q0 39 -35 63t-93 24q-78 0 -142 -57l-24 54q81 66 179 66q83 0 137.5 -34.5t54.5 -102.5q0 -10 -6 -46zM219 42q76 0 131 58l21 90 q-37 63 -140 63q-56 0 -90.5 -33.5t-34.5 -85.5q0 -44 31 -68t82 -24z" />
<glyph horiz-adv-x="551" d="M189 -196q-147 0 -216 82l47 51q46 -71 167 -71q128 0 163 150l14 62q-88 -80 -169 -80q-63 0 -103.5 29.5t-40.5 88.5q0 16 5 42l72 325h75l-68 -307q-5 -23 -5 -35q0 -77 100 -77q76 0 148 76l76 343h75l-104 -467q-47 -212 -236 -212z" />
<glyph horiz-adv-x="713" d="M355 -12q-129 0 -212 80.5t-83 211.5q0 175 114 286.5t274 111.5q86 0 153.5 -40t102.5 -106l-75 -34q-26 51 -78.5 78.5t-114.5 27.5q-113 0 -200.5 -90.5t-87.5 -229.5q0 -100 60 -161t158 -61q97 0 163 58t95 149h-275l16 74h361q-31 -169 -126 -262t-245 -93z" />
<glyph horiz-adv-x="643" d="M321 -12q-121 0 -197.5 69t-76.5 177q0 139 97.5 233.5t228.5 94.5q149 0 228 -119l-68 -35q-24 39 -68 61.5t-94 22.5q-97 0 -170 -71.5t-73 -177.5q0 -84 56 -135t140 -51q70 0 127 45.5t75 118.5h-213l14 65h290q-14 -129 -97.5 -213.5t-198.5 -84.5z" />
<glyph horiz-adv-x="528" d="M534 700l-201 -144h-59l180 144h80zM403 0h-75l12 52q-66 -64 -150 -64q-68 0 -115.5 36.5t-47.5 103.5q0 82 52.5 130.5t128.5 48.5q109 0 172 -72l18 81q3 12 3 29q0 39 -35 63t-93 24q-78 0 -142 -57l-24 54q81 66 179 66q83 0 137.5 -34.5t54.5 -102.5q0 -10 -6 -46z M219 42q76 0 131 58l21 90q-37 63 -140 63q-56 0 -90.5 -33.5t-34.5 -85.5q0 -44 31 -68t82 -24z" />
<glyph horiz-adv-x="528" d="M407 556h-57l-137 144h78zM403 0h-75l12 52q-66 -64 -150 -64q-68 0 -115.5 36.5t-47.5 103.5q0 82 52.5 130.5t128.5 48.5q109 0 172 -72l18 81q3 12 3 29q0 39 -35 63t-93 24q-78 0 -142 -57l-24 54q81 66 179 66q83 0 137.5 -34.5t54.5 -102.5q0 -10 -6 -46zM219 42 q76 0 131 58l21 90q-37 63 -140 63q-56 0 -90.5 -33.5t-34.5 -85.5q0 -44 31 -68t82 -24z" />
<glyph horiz-adv-x="528" d="M476 556h-49l-60 106l-103 -106h-53l127 144h72zM403 0h-75l12 52q-66 -64 -150 -64q-68 0 -115.5 36.5t-47.5 103.5q0 82 52.5 130.5t128.5 48.5q109 0 172 -72l18 81q3 12 3 29q0 39 -35 63t-93 24q-78 0 -142 -57l-24 54q81 66 179 66q83 0 137.5 -34.5t54.5 -102.5 q0 -10 -6 -46zM219 42q76 0 131 58l21 90q-37 63 -140 63q-56 0 -90.5 -33.5t-34.5 -85.5q0 -44 31 -68t82 -24z" />
<glyph horiz-adv-x="528" d="M499 609q0 -20 -15.5 -35.5t-36.5 -15.5q-17 0 -29 12t-12 29q0 20 15.5 35.5t36.5 15.5q17 0 29 -12t12 -29zM293 609q0 -20 -16 -35.5t-36 -15.5q-17 0 -29 12t-12 29q0 20 15.5 35.5t36.5 15.5q17 0 29 -12t12 -29zM403 0h-75l12 52q-66 -64 -150 -64 q-68 0 -115.5 36.5t-47.5 103.5q0 82 52.5 130.5t128.5 48.5q109 0 172 -72l18 81q3 12 3 29q0 39 -35 63t-93 24q-78 0 -142 -57l-24 54q81 66 179 66q83 0 137.5 -34.5t54.5 -102.5q0 -10 -6 -46zM219 42q76 0 131 58l21 90q-37 63 -140 63q-56 0 -90.5 -33.5t-34.5 -85.5 q0 -44 31 -68t82 -24z" />
<glyph horiz-adv-x="528" d="M411 554q-25 0 -42 14.5t-24.5 31.5t-20.5 31.5t-31 14.5q-43 0 -62 -86h-46q27 134 114 134q25 0 42 -14.5t24.5 -31.5t21 -31.5t31.5 -14.5q42 0 62 86h46q-29 -134 -115 -134zM403 0h-75l12 52q-66 -64 -150 -64q-68 0 -115.5 36.5t-47.5 103.5q0 82 52.5 130.5 t128.5 48.5q109 0 172 -72l18 81q3 12 3 29q0 39 -35 63t-93 24q-78 0 -142 -57l-24 54q81 66 179 66q83 0 137.5 -34.5t54.5 -102.5q0 -10 -6 -46zM219 42q76 0 131 58l21 90q-37 63 -140 63q-56 0 -90.5 -33.5t-34.5 -85.5q0 -44 31 -68t82 -24z" />
<glyph horiz-adv-x="528" d="M351 554q-39 0 -64 25t-25 64q0 44 32 76t76 32q40 0 64.5 -24.5t24.5 -64.5q0 -44 -32 -76t-76 -32zM354 594q26 0 45.5 19t19.5 45q0 24 -14 38.5t-37 14.5q-26 0 -46 -19t-20 -45q0 -23 14.5 -38t37.5 -15zM403 0h-75l12 52q-66 -64 -150 -64q-68 0 -115.5 36.5 t-47.5 103.5q0 82 52.5 130.5t128.5 48.5q109 0 172 -72l18 81q3 12 3 29q0 39 -35 63t-93 24q-78 0 -142 -57l-24 54q81 66 179 66q83 0 137.5 -34.5t54.5 -102.5q0 -10 -6 -46zM219 42q76 0 131 58l21 90q-37 63 -140 63q-56 0 -90.5 -33.5t-34.5 -85.5q0 -44 31 -68 t82 -24z" />
<glyph horiz-adv-x="551" d="M536 700l-201 -144h-59l180 144h80zM189 -196q-147 0 -216 82l47 51q46 -71 167 -71q128 0 163 150l14 62q-88 -80 -169 -80q-63 0 -103.5 29.5t-40.5 88.5q0 16 5 42l72 325h75l-68 -307q-5 -23 -5 -35q0 -77 100 -77q76 0 148 76l76 343h75l-104 -467 q-47 -212 -236 -212z" />
<glyph horiz-adv-x="551" d="M501 609q0 -20 -15.5 -35.5t-36.5 -15.5q-17 0 -29 12t-12 29q0 20 15.5 35.5t36.5 15.5q17 0 29 -12t12 -29zM295 609q0 -20 -16 -35.5t-36 -15.5q-17 0 -29 12t-12 29q0 20 15.5 35.5t36.5 15.5q17 0 29 -12t12 -29zM189 -196q-147 0 -216 82l47 51q46 -71 167 -71 q128 0 163 150l14 62q-88 -80 -169 -80q-63 0 -103.5 29.5t-40.5 88.5q0 16 5 42l72 325h75l-68 -307q-5 -23 -5 -35q0 -77 100 -77q76 0 148 76l76 343h75l-104 -467q-47 -212 -236 -212z" />
<glyph horiz-adv-x="895" d="M844 217h-392v-9q-1 -8 -1 -13q0 -60 42.5 -102.5t119.5 -42.5q82 0 139 48l26 -53q-70 -57 -164 -57q-149 0 -206 107q-46 -49 -95.5 -78t-117.5 -29q-71 0 -119.5 36t-48.5 104q0 83 53.5 131t127.5 48q55 0 101 -18t71 -51l18 78q2 9 2 29q0 40 -35.5 63.5t-91.5 23.5 q-75 0 -142 -57l-25 54q79 66 180 66q154 0 166 -115q27 51 79 83t118 32q89 0 146 -56.5t57 -154.5q0 -19 -8 -67zM463 273h320q1 6 1 18q0 63 -40 102.5t-106 39.5q-70 0 -114 -47.5t-61 -112.5zM376 132q-6 21 -6 52v7q-16 29 -55.5 45.5t-84.5 16.5q-54 0 -89.5 -33.5 t-35.5 -85.5q0 -44 31.5 -68t82.5 -24q87 0 157 90z" />
<glyph horiz-adv-x="612" d="M278 -12q-99 0 -157 64l-44 -52h-67l81 96q-32 62 -32 152q0 103 37 200t111 163t167 66q97 0 154 -63l45 53h67l-81 -96q32 -62 32 -153q0 -103 -36.5 -200t-110 -163.5t-166.5 -66.5zM285 62q66 0 118 59t77.5 140t25.5 162q0 42 -9 75l-323 -382q37 -54 111 -54z M143 243q0 -42 9 -75l322 382q-35 53 -109 53q-65 0 -117.5 -58t-78.5 -139.5t-26 -162.5z" />
<glyph horiz-adv-x="552" d="M117 0h-75l92 417h-80l15 66h80l8 37q35 157 159 157q49 0 86 -23l-29 -54q-19 15 -51 15q-69 0 -90 -95l-8 -37h98l-15 -66h-98zM435 -12q-51 0 -81 21.5t-30 60.5q0 18 4 34l124 563h75l-121 -548q-3 -12 -3 -23q0 -41 50 -41q26 0 46 16l8 -60q-29 -23 -72 -23z" />
<glyph horiz-adv-x="836" d="M117 0h-75l92 417h-80l15 66h80l8 37q36 157 159 157q66 0 107 -41l-40 -46q-22 25 -61 25q-69 0 -90 -95l-8 -37h98l-15 -66h-98zM401 0h-75l92 417h-80l15 66h80l8 37q35 157 159 157q49 0 86 -23l-29 -54q-19 15 -51 15q-69 0 -90 -95l-8 -37h98l-15 -66h-98zM718 -12 q-51 0 -81 21.5t-30 60.5q0 18 4 34l124 563h75l-121 -548q-3 -12 -3 -23q0 -41 50 -41q26 0 46 16l8 -60q-29 -23 -72 -23z" />
</font>
</defs></svg> 